{"success":true,"results":[{"dappId":362,"name":"cryptopixels","description":"A collaborative pixelated canvas. ","fullDescription":"A collaborative pixelated canvas. ","logo":null,"link":"https://dappradar.com/dapp/cryptopixels","website":"https://cryptopixels.net/","chains":["ethereum"],"categories":["games"],"socialLinks":[],"tags":[]},{"dappId":363,"name":"CryptoGems","description":"Get a Miner. Mine Gems. Build your Army","fullDescription":"Get a Miner. Mine Gems. Build your Army","logo":null,"link":"https://dappradar.com/dapp/cryptogems","website":"https://cryptogems.co","chains":["ethereum"],"categories":["other"],"socialLinks":[],"tags":[]},{"dappId":364,"name":"DIVI10","description":"Divium 10","fullDescription":"Divium 10","logo":null,"link":"https://dappradar.com/dapp/divi10","website":"https://divium.io","chains":["ethereum"],"categories":["other"],"socialLinks":[{"title":"Official Discord","url":"https://discord.gg/gW2zspD","type":"discord"}],"tags":[]},{"dappId":365,"name":"Saturn Strategic Investor Program","description":"Strategic Investor Program dApp is part of Saturn ","fullDescription":"Strategic Investor Program dApp is part of Saturn Network's token crowdsale. It allows investors to receive up to 50% bonus in exchange for cryptographically locking up their tokens for a fixed time period.","logo":null,"link":"https://dappradar.com/dapp/saturn-strategic-investor-program","website":"https://radex.ai/saturn-hodl","chains":["ethereum"],"categories":["other"],"socialLinks":[{"title":"Official Information","url":"https://www.saturn.network/ico-details","type":"other"}],"tags":[]},{"dappId":366,"name":"Peepeth","description":"Blockchain microblogging with a soul.","fullDescription":"Blockchain microblogging with a soul.","logo":null,"link":"https://dappradar.com/dapp/peepeth","website":"https://peepeth.com/","chains":["ethereum"],"categories":["other"],"socialLinks":[{"title":"Official Twitter","url":"https://twitter.com/peepethApp","type":"twitter"}],"tags":[]},{"dappId":368,"name":"CryptoMilitary","description":"CryptoMilitary is about conquering the world by ow","fullDescription":"CryptoMilitary is about conquering the world by owning countries militaries while earning Ether along the way. \r\nEvery nation's military is shown as a Smart Contract. Anyone can take ownership of a military by purchasing it with Ethereum. \r\nAfter you bought a military, the price of that military increases automatically.\r\n\r\nOther players will be able to take over your military and you will be granted up to double the ETH you spent on it!","logo":null,"link":"https://dappradar.com/dapp/cryptomilitary","website":"https://www.cryptomilitary.io","chains":["ethereum"],"categories":["games"],"socialLinks":[{"title":"Official Medium","url":"https://medium.com/@cryptomilitary","type":"medium"}],"tags":[]},{"dappId":369,"name":"PyrLink","description":"Earn ETH holding licensing bonds","fullDescription":"Earn ETH holding licensing bonds","logo":null,"link":"https://dappradar.com/dapp/pyrlink","website":"http://PyrLink.com/","chains":["ethereum"],"categories":["other"],"socialLinks":[{"title":"Official Discord","url":"https://discord.gg/eMFkg7","type":"discord"}],"tags":[]},{"dappId":370,"name":"Crypto Stock Market","description":"World's first blockchain based trading game to own","fullDescription":"World's first blockchain based trading game to own and trade stocks of your favorite companies. ","logo":null,"link":"https://dappradar.com/dapp/crypto-stock-market","website":"https://cryptostockmarket.co/","chains":["ethereum"],"categories":["games"],"socialLinks":[{"title":"Official Discord","url":"https://discordapp.com/invite/cJkgaCr","type":"discord"},{"title":"Official Facebook","url":"https://www.facebook.com/cystockmarket/","type":"facebook"},{"title":"Official Reddit","url":"https://www.reddit.com/user/cryptostockmarket","type":"reddit"},{"title":"Official Twitter","url":"https://twitter.com/cystockmarket","type":"twitter"}],"tags":[]},{"dappId":371,"name":"Ether Music Project","description":"This is a fun project that utilizes Ethereum smart","fullDescription":"This is a fun project that utilizes Ethereum smart contracts to create a piece of music that anyone with ether can contribute too. The question we wish to answer? Can the internet come as one to create a piece of art. All funds raised in the piece will go to the Ethereum Foundation Tip Jar. After every milestone is hit (see Stats page), the contract will send it's current balance to the donatee. ","logo":null,"link":"https://dappradar.com/dapp/ether-music-project","website":"https://ethermusic.io","chains":["ethereum"],"categories":["other"],"socialLinks":[],"tags":[]},{"dappId":372,"name":"Ether255","description":"Ether255 is a unique one-on-one game of luck where","fullDescription":"Ether255 is a unique one-on-one game of luck where you can win Ether through a quick and fun “compare the numbers” game. Unlike online casinos, Ether255 takes out the middlemen and each match is played directly between players as one-on-one challenges.\r\nThe game, found at Ether255.com, is based on the Ethereum blockchain and uses an Ethereum smart contract to place bets. Ether255 promises all plays to be provably fair and requires no deposits. Each wheel spin is random and cryptographically secure.\r\nPlay is very simple: each player spins the wheel and compares the result with his opponent’s. Numbers range between 0 to 255. If you win, your winnings are paid into your account immediately. The company takes a 2% commission fee.\r\nEther255 is straightforward and requires only a bit of luck. If you are feeling lucky, go to Ether255.com and start winning some Ether today!","logo":null,"link":"https://dappradar.com/dapp/ether255","website":"http://www.ether255.com","chains":["ethereum"],"categories":["gambling"],"socialLinks":[{"title":"Informational Video","url":"https://www.youtube.com/watch?v=gJZSXaurMTE","type":"other"},{"title":"Official Facebook","url":"https://www.facebook.com/ether255/","type":"facebook"}],"tags":[]},{"dappId":373,"name":"EthKeepHand","description":" ","fullDescription":" ","logo":null,"link":"https://dappradar.com/dapp/ethkeephand","website":"http://www.ethkeephand.com","chains":["ethereum"],"categories":["gambling"],"socialLinks":[],"tags":[]},{"dappId":374,"name":"SuperRare","description":"Art Gallery & Marketplace","fullDescription":"<p>SuperRare is a marketplace to collect and trade unique, single-edition digital artworks. Each artwork is authentically created by an artist in the network, and tokenized as a crypto-collectible digital item that you can own and trade. You can think of SuperRare like Instagram meets Robinhood. A new way to interact with art, culture, and collecting on the internet!</p>","logo":"https://dashboard-assets.dappradar.com/geRRcWz9IdTwSrm1/document/374/superrare-dapp-marketplaces-ethereum-logo_64cfa5266ca9dca7af409c1be8efe046.png","link":"https://dappradar.com/dapp/superrare","website":"https://superrare.com/","chains":["ethereum"],"categories":["marketplaces"],"socialLinks":[{"title":"discord","url":"https://discord.com/invite/pGeAWrP","type":"discord"},{"title":"medium","url":"https://medium.com/@SuperRare_co","type":"medium"},{"title":"twitter","url":"https://twitter.com/SuperRare","type":"twitter"}],"tags":[{"id":"10","name":"Layer 2","slug":"layer-2"},{"id":"11","name":"Content Creation","slug":"content-creation"},{"id":"12","name":"Art","slug":"art"},{"id":"13","name":"Pools","slug":"pools"},{"id":"14","name":"Gambling","slug":"gambling"},{"id":"15","name":"Knowledge","slug":"knowledge"},{"id":"16","name":"Farming","slug":"farming"},{"id":"18","name":"Discussions","slug":"discussions"},{"id":"19","name":"Photos","slug":"photos"},{"id":"1","name":"NFT","slug":"nft"},{"id":"20","name":"Videos","slug":"videos"},{"id":"21","name":"Move to Earn","slug":"move-to-earn"},{"id":"22","name":"Metaverse","slug":"metaverse"},{"id":"23","name":"Sports","slug":"sports"},{"id":"24","name":"Social","slug":"social"},{"id":"2","name":"Exchanges","slug":"exchanges"},{"id":"3","name":"Staking","slug":"staking"},{"id":"4","name":"Yield","slug":"yield"},{"id":"5","name":"DeFi","slug":"defi"},{"id":"6","name":"Games","slug":"games"},{"id":"7","name":"Play to Earn","slug":"play-to-earn"},{"id":"8","name":"Marketplaces","slug":"marketplaces"},{"id":"9","name":"Governance","slug":"governance"}]},{"dappId":375,"name":"John Orion Young","description":"Collect virtual reality art made by John Orion You","fullDescription":"Collect virtual reality art made by John Orion Young. Earn ETH when someone buys art from your collection.","logo":null,"link":"https://dappradar.com/dapp/john-orion-young","website":"http://www.johnorionyoung.com/","chains":["ethereum"],"categories":["collectibles"],"socialLinks":[{"title":"Official Discord","url":"https://discord.gg/hBv9BDD","type":"discord"},{"title":"Official Instagram","url":"https://www.instagram.com/johnorionyoung/","type":"instagram"},{"title":"Official Twitter","url":"https://twitter.com/johnorionyoung","type":"twitter"}],"tags":[]},{"dappId":377,"name":"STRZ.io","description":"Crypto Collectible Tethered to the Stars in the Mi","fullDescription":"Crypto Collectible Tethered to the Stars in the Milky Way","logo":null,"link":"https://dappradar.com/dapp/strz-io","website":"https://strz.io/","chains":["ethereum"],"categories":["other"],"socialLinks":[{"title":"Official Facebook","url":"https://www.facebook.com/STRZ.io/","type":"facebook"},{"title":"Official Reddit","url":"https://www.reddit.com/user/strzio/","type":"reddit"},{"title":"Official Twitter","url":"https://twitter.com/StellarBullion","type":"twitter"}],"tags":[]},{"dappId":378,"name":"Ether Cashlinks","description":"Send a link with Ether attached to it.","fullDescription":"Send a link with Ether attached to it.","logo":null,"link":"https://dappradar.com/dapp/ether-cashlinks","website":"https://ethercashlinks.com","chains":["ethereum"],"categories":["other"],"socialLinks":[],"tags":[]},{"dappId":379,"name":"CryptoCup","description":"A 2018 world cup team trading game with knockout s","fullDescription":"A 2018 world cup team trading game with knockout stage prizes","logo":null,"link":"https://dappradar.com/dapp/cryptocup-2","website":"https://cryptocup.online","chains":["ethereum"],"categories":["games"],"socialLinks":[{"title":"Official Twitter","url":"https://twitter.com/TheCryptoCup","type":"twitter"}],"tags":[]},{"dappId":380,"name":"The adChain Publisher Registry","description":"The adChain Publisher Registry is the first Token-","fullDescription":"The adChain Publisher Registry is the first Token-Curated Registry (TCR) in production where adToken (ADT) holders curate a list of non-fraudulent publishers. ","logo":null,"link":"https://dappradar.com/dapp/the-adchain-publisher-registry","website":"https://publisher.adchain.com","chains":["ethereum"],"categories":["other"],"socialLinks":[{"title":"Official Information","url":"https://metax.io/products/adchain_registry/","type":"other"}],"tags":[]},{"dappId":381,"name":"Cryptolympic Torch","description":"Become a Cryptolympic Torch Runner and earn KMS To","fullDescription":"Become a Cryptolympic Torch Runner and earn KMS Tokens which pay Ethereum dividends from all Torch Runners after you!  20% Dividends Pool!","logo":null,"link":"https://dappradar.com/dapp/cryptolympic-torch","website":"https://cryptotorch.io","chains":["ethereum"],"categories":["other"],"socialLinks":[{"title":"Official Discord","url":"https://discord.gg/nfyVSm","type":"discord"},{"title":"Official Twitter","url":"https://twitter.com/crypto_torch","type":"twitter"}],"tags":[]},{"dappId":382,"name":"EtherDank","description":"Marijuana Crypto Collectibles & Hot Potato Game","fullDescription":"Marijuana Crypto Collectibles & Hot Potato Game","logo":null,"link":"https://dappradar.com/dapp/etherdank","website":"http://etherdank.com","chains":["ethereum"],"categories":["games"],"socialLinks":[{"title":"Official Discord","url":"https://discord.gg/4n6m2d3","type":"discord"}],"tags":[]},{"dappId":383,"name":"RigWars.io Idle Game","description":"Idle game about cryptomining and trading","fullDescription":"Idle game about cryptomining and trading","logo":null,"link":"https://dappradar.com/dapp/rigwars-io-idle-game","website":"https://rigwars.io/","chains":["ethereum"],"categories":["games"],"socialLinks":[{"title":"Official Information","url":"https://medium.com/@CoinDealShip/play-rigwars-free-idle-game-try-yourself-in-virtual-mining-earn-real-eth-84fb62962a0d","type":"other"}],"tags":[]},{"dappId":384,"name":"ThisOrThat.io","description":"It's this or that, but with ETH!  Guess which answ","fullDescription":"It's this or that, but with ETH!  Guess which answer will be most popular to win!","logo":null,"link":"https://dappradar.com/dapp/thisorthat-io","website":"http://www.eggtokens.com/","chains":["ethereum"],"categories":["other"],"socialLinks":[{"title":"Official Telegram","url":"https://t.me/FreeRangeICO","type":"telegram"}],"tags":[]},{"dappId":385,"name":"twoxpot","description":" ","fullDescription":" ","logo":null,"link":"https://dappradar.com/dapp/twoxpot","website":"https://twoxpot.com/","chains":["ethereum"],"categories":["high-risk"],"socialLinks":[{"title":"Official Discord","url":"https://discord.gg/Zk4nw8j","type":"discord"}],"tags":[]},{"dappId":387,"name":"Proof Of Craig Grant Coin","description":"A pyramid honoring the  Shill King himself, Craig ","fullDescription":"A pyramid honoring the  Shill King himself, Craig Grant","logo":null,"link":"https://dappradar.com/dapp/proof-of-craig-grant-coin","website":"http://www.pocg.site","chains":["ethereum"],"categories":["high-risk"],"socialLinks":[],"tags":[]},{"dappId":388,"name":"Ether-boy Quest","description":"Count up to 7 a. If someone else count after you, ","fullDescription":"Count up to 7 a. If someone else count after you, you will get * 1.38 amount. ","logo":null,"link":"https://dappradar.com/dapp/ether-boy-quest","website":"http://app.givinglog.com/game/sevenwinners/index.html","chains":["ethereum"],"categories":["other"],"socialLinks":[],"tags":[]},{"dappId":389,"name":"Bancor","description":"A Smarter Crypto Wallet Manage and convert ETH,","fullDescription":"<p>A Smarter Crypto Wallet Manage and convert ETH, EOS, DAI and 8700+ token pairs from a simple, secure wallet that’s accessible on any device.</p>","logo":"https://dashboard-assets.dappradar.com/geRRcWz9IdTwSrm1/document/389/bancor-dapp-exchanges-ethereum-logo_d31ae8f30d0415433280590e3623c3a6.png","link":"https://dappradar.com/dapp/bancor","website":"https://www.bancor.network/","chains":["ethereum"],"categories":["exchanges"],"socialLinks":[],"tags":[]},{"dappId":390,"name":"Cosmic Dice","description":"Ethereum dice game powered by atmospheric noise. N","fullDescription":"Ethereum dice game powered by atmospheric noise. No account needed. Instant payouts. Have fun and win up to 500x your bet amount. Provably fair with all calculations and payouts executed automatically by smart contract on the Ethereum blockchain. Other dice games simply to take your Ether while only using psuedo random numbers and calculations made off the blockchain. Play fair, play fun, good luck!","logo":null,"link":"https://dappradar.com/dapp/cosmic-dice","website":"https://www.cosmicdice.org/","chains":["ethereum"],"categories":["gambling"],"socialLinks":[],"tags":[]},{"dappId":391,"name":"PoBitconnect","description":" ","fullDescription":" ","logo":null,"link":"https://dappradar.com/dapp/pobitconnect","website":"https://pobitconnect.club/","chains":["ethereum"],"categories":["high-risk"],"socialLinks":[],"tags":[]},{"dappId":392,"name":"CarWars.cc","description":"Collect. Compete. Discover.\r\nThe newest member of ","fullDescription":"Collect. Compete. Discover.\r\nThe newest member of crypto games. CarWars.cc is a comprehensive crypto game with true game asset ownership. 'The Makers' have discovered ancient blueprints. Compete with others and help the Makers unlock secrets hidden within the blueprints","logo":null,"link":"https://dappradar.com/dapp/carwars-cc","website":"https://carwars.cc/","chains":["ethereum"],"categories":["games"],"socialLinks":[{"title":"Official Discord","url":"https://discord.gg/9wqx5aE","type":"discord"},{"title":"Official Facebook","url":"https://www.facebook.com/ethergamesau/","type":"facebook"},{"title":"Official Instagram","url":"https://www.instagram.com/ethergames/","type":"instagram"},{"title":"Official LinkedIn","url":"https://www.linkedin.com/company/ether-games-au/","type":"linkedin"},{"title":"Official Reddit","url":"https://www.reddit.com/user/Ether_Games/","type":"reddit"},{"title":"Official Telegram","url":"https://t.me/ethergames_au","type":"telegram"},{"title":"Official Twitter","url":"https://twitter.com/ethergames_au","type":"twitter"}],"tags":[]},{"dappId":394,"name":"Ball And Blockchain","description":"Create a permanent, immutable record of your love","fullDescription":"Create a permanent, immutable record of your love","logo":null,"link":"https://dappradar.com/dapp/ball-and-blockchain","website":"http://ballandblockchain.io/","chains":["ethereum"],"categories":["other"],"socialLinks":[{"title":"Official Facebook","url":"https://www.facebook.com/ballandblockchain/","type":"facebook"}],"tags":[]},{"dappId":395,"name":"Etherlambos","description":"Etherlambos are digital high-end luxury cars which","fullDescription":"Etherlambos are digital high-end luxury cars which represent top coins. They that can be collected, traded and tuned on the Ethereum blockchain. Etherlambos offer a variety of limited-edition models to choose from, or, upon request, users may design their own. Tuning up a car modifies its performance and appearance. ","logo":null,"link":"https://dappradar.com/dapp/etherlambos","website":"http://www.etherlambos.io/","chains":["ethereum"],"categories":["games"],"socialLinks":[{"title":"Information Video","url":"https://www.youtube.com/watch?v=n4bjdGZMoD0","type":"other"},{"title":"Official Facebook","url":"https://www.facebook.com/etherlambos.io","type":"facebook"},{"title":"Official Instagram","url":"https://www.instagram.com/etherlambos/ ","type":"instagram"},{"title":"Official Twitter","url":"https://twitter.com/Etherlambos","type":"twitter"}],"tags":[]},{"dappId":396,"name":"Proof of Satoshi","description":"“This is where it all begins – and where it all en","fullDescription":"“This is where it all begins – and where it all ends”","logo":null,"link":"https://dappradar.com/dapp/proof-of-satoshi","website":"https://posatoshi.com/","chains":["ethereum"],"categories":["high-risk"],"socialLinks":[{"title":"Official Discord","url":"https://discord.gg/ENXNGHc","type":"discord"}],"tags":[]},{"dappId":397,"name":"Proof of Trevon James","description":"\"Don't talk to me unless it's about intangible coi","fullDescription":"\"Don't talk to me unless it's about intangible coins. Earn 20% on buys, 25% on sells + Masternode Referrals!","logo":null,"link":"https://dappradar.com/dapp/proof-of-trevon-james","website":"https://potj.me","chains":["ethereum"],"categories":["high-risk"],"socialLinks":[{"title":"Official Discord","url":"https://discord.gg/8FdGtS8","type":"discord"}],"tags":[]},{"dappId":398,"name":"HODL My Beer","description":"Beer backed Crypto Currency Clone with 33.333% (re","fullDescription":"Beer backed Crypto Currency Clone with 33.333% (repeating, of course) Dividends!","logo":null,"link":"https://dappradar.com/dapp/hodl-my-beer","website":"https://www.hodlmybeer.net/","chains":["ethereum"],"categories":["other"],"socialLinks":[{"title":"Official Discord","url":"https://discord.gg/z3pTuJ3","type":"discord"},{"title":"Official Twitter","url":"https://twitter.com/HODLMyBeerz","type":"twitter"}],"tags":[]},{"dappId":399,"name":"PoMasterNode","description":" ","fullDescription":" ","logo":null,"link":"https://dappradar.com/dapp/pomasternode","website":"https://pomn.co","chains":["ethereum"],"categories":["high-risk"],"socialLinks":[],"tags":[]},{"dappId":400,"name":"DIVIUM x2","description":"* 20% Divs\r\n\r\n* 20% of every buy and sell will be ","fullDescription":"* 20% Divs\r\n\r\n* 20% of every buy and sell will be rewarded to token holders\r\n\r\n* SlowDump feature: You can sell only 100 tokens at a time (Can be changed upon community request through polling. Can't set below 10 tokens as it is hard coded in source code.)\r\n\r\n* Minimum 0 tokens to eligible for masternode (Can be changed upon community request through polling)\r\n\r\n* Earn 3% as commissions for every buy & reinvest","logo":null,"link":"https://dappradar.com/dapp/divium-x2","website":"https://diviumx2.io/","chains":["ethereum"],"categories":["other"],"socialLinks":[{"title":"Official Discord","url":"https://discordapp.com/invite/pqcjXSC","type":"discord"}],"tags":[]},{"dappId":401,"name":"EthMash","description":"Player vs player gambling","fullDescription":"Player vs player gambling","logo":null,"link":"https://dappradar.com/dapp/ethmash","website":"https://ethmash.com/","chains":["ethereum"],"categories":["gambling"],"socialLinks":[],"tags":[]},{"dappId":402,"name":"Proof of Kenny Coin","description":"A pyramid game honoring Kenny. ","fullDescription":"A pyramid game honoring Kenny. ","logo":null,"link":"https://dappradar.com/dapp/proof-of-kenny-coin","website":"http://www.pokc.site","chains":["ethereum"],"categories":["high-risk"],"socialLinks":[],"tags":[]},{"dappId":404,"name":"Livepeer","description":"Decentralized live video streaming protocol","fullDescription":"Decentralized live video streaming protocol for DApps","logo":"https://dashboard-assets.dappradar.com/geRRcWz9IdTwSrm1/document/404/livepeer-social-eth-logo_e502d52225ce65493b92e96c7da83938.png","link":"https://dappradar.com/dapp/livepeer","website":"http://livepeer.org","chains":["ethereum"],"categories":["social"],"socialLinks":[],"tags":[]},{"dappId":405,"name":"Caesar's Triumph","description":"The setting is Ancient Rome. The objective is t","fullDescription":"<p>The setting is Ancient Rome. The objective is to conquer Europe and rule the empire. Caesar&#39;s Triumph takes the best in resource-production games and combines them with the best in strategic conquest games to create a mega-world of economic, political, and military strategy.</p>\r\n","logo":"https://dashboard-assets.dappradar.com/geRRcWz9IdTwSrm1/document/405/caesarstriumph-dapp-games-eth-logo_eca9893db8e09c9e8c950d88e5219c14.png","link":"https://dappradar.com/dapp/caesar-s-triumph","website":"https://www.caesarstriumph.com","chains":["ethereum"],"categories":["games"],"socialLinks":[{"title":"Official Discord","url":"https://discord.gg/RJBRkTx","type":"discord"},{"title":"Official Facebook","url":"https://www.facebook.com/caesarstriumph","type":"facebook"},{"title":"Official Medium","url":"https://medium.com/caesarstriumph","type":"medium"},{"title":"Official Twitter","url":"https://www.twitter.com/Caesars_Triumph","type":"twitter"}],"tags":[]},{"dappId":406,"name":"POIdiot","description":"A div-producing, baby-making and rocket powered pr","fullDescription":"A div-producing, baby-making and rocket powered proof of your stupidity.","logo":null,"link":"https://dappradar.com/dapp/poidiot","website":"http://poidiot.site","chains":["ethereum"],"categories":["high-risk"],"socialLinks":[],"tags":[]},{"dappId":407,"name":"ProofOfKek (POK)","description":"15% of every buy and sell will be rewarded to toke","fullDescription":"15% of every buy and sell will be rewarded to token holders. Strong Kek Praisers will be rewarded through every crash and pump. The smart contract, unlike other schemes, will allow you to directly convert your dividends back into tokens, increasing your ability to earn more dividends. Invite friends with your referral link. Your masternode brings you 7% of their total purchases in dividends","logo":null,"link":"https://dappradar.com/dapp/proofofkek-pok","website":"https://www.pokek.org/","chains":["ethereum"],"categories":["high-risk"],"socialLinks":[{"title":"Official Discord","url":"https://discord.gg/p5mcMe3","type":"discord"},{"title":"Official Twitter","url":"https://twitter.com/ProofOfKek","type":"twitter"}],"tags":[]},{"dappId":408,"name":"Harj Coin","description":"Harj Coin is a Math Game. Which gives passive ETH ","fullDescription":"Harj Coin is a Math Game. Which gives passive ETH income","logo":null,"link":"https://dappradar.com/dapp/harj-coin","website":"https://harjcoin.io","chains":["ethereum"],"categories":["other"],"socialLinks":[],"tags":[]},{"dappId":409,"name":"Grip Token","description":"Earn ETH for holding GRIPS - 20% Divs on Buys/25% ","fullDescription":"Earn ETH for holding GRIPS - 20% Divs on Buys/25% on Sells","logo":null,"link":"https://dappradar.com/dapp/grip-token","website":"https://www.griptoken.co/","chains":["ethereum"],"categories":["other"],"socialLinks":[{"title":"Official Discord","url":"https://discord.gg/K9BmczS","type":"discord"},{"title":"Official Telegram","url":"https://t.me/@GripToken1","type":"telegram"}],"tags":[]},{"dappId":410,"name":"PO24","description":"PO24: A new pyramid which anti-dump protection. Yo","fullDescription":"PO24: A new pyramid which anti-dump protection. You are unable to sell/withdraw/transfer tokens for 24 hours since your last buy. Also you can only put in 0.5 eth max per 5 minutes.","logo":null,"link":"https://dappradar.com/dapp/po24","website":"https://ethopolis.io/po24.html","chains":["ethereum"],"categories":["high-risk"],"socialLinks":[],"tags":[]},{"dappId":411,"name":"EthButton.io","description":"The Button game experiment!","fullDescription":"The Button game experiment!","logo":null,"link":"https://dappradar.com/dapp/ethbutton-io","website":"https://ethbutton.io/","chains":["ethereum"],"categories":["games"],"socialLinks":[],"tags":[]},{"dappId":412,"name":"NoteChain","description":"NoteChain is an app which allow users to write pri","fullDescription":"NoteChain is an app which allow users to write private and public notes on Ethereum Blockchain. A public note can be easily shared with a unique ID. The note can also be protected by a password so only the selected one can see it.","logo":null,"link":"https://dappradar.com/dapp/notechain","website":"https://NoteChain.org","chains":["ethereum"],"categories":["other"],"socialLinks":[],"tags":[]},{"dappId":413,"name":"Seedom","description":"Support altruistic causes and win ether!","fullDescription":"Support altruistic causes and win ether!","logo":null,"link":"https://dappradar.com/dapp/seedom","website":"https://seedom.io","chains":["ethereum"],"categories":["other"],"socialLinks":[{"title":"Official Reddit","url":"https://reddit.com/r/seedom_io","type":"reddit"}],"tags":[]},{"dappId":415,"name":"Proof of Bling","description":"POWHD3 Clone with Fly Ass 25% DIVs and Fat Mastern","fullDescription":"POWHD3 Clone with Fly Ass 25% DIVs and Fat Masternode Bonuses","logo":null,"link":"https://dappradar.com/dapp/proof-of-bling","website":"https://www.proofofbling.com/","chains":["ethereum"],"categories":["high-risk"],"socialLinks":[{"title":"Official Discord","url":"https://discord.gg/ES4hSPA","type":"discord"},{"title":"Official Twitter","url":"https://twitter.com/ProofofB","type":"twitter"}],"tags":[]},{"dappId":416,"name":"Proof of Ripple","description":"Proof of Ripple is a proof coin with wagering requ","fullDescription":"Proof of Ripple is a proof coin with wagering requirement built in to enforce volatility and long term dividends generation. Join our Discord to learn more.","logo":null,"link":"https://dappradar.com/dapp/proof-of-ripple","website":"https://poripple.com/","chains":["ethereum"],"categories":["high-risk"],"socialLinks":[{"title":"Official Discord","url":"https://discord.gg/6AA5etr","type":"discord"}],"tags":[]},{"dappId":417,"name":"Ethervote","description":"Pick a side and put your Eth where your mouth is!","fullDescription":"Pick a side and put your Eth where your mouth is!","logo":null,"link":"https://dappradar.com/dapp/ethervote","website":"http://ethervote.io/","chains":["ethereum"],"categories":["other"],"socialLinks":[{"title":"Official Discord","url":"https://discord.gg/dF95uuV","type":"discord"}],"tags":[]}],"page":7,"pageCount":91,"resultCount":4541,"resultsPerPage":50}