{"success":true,"results":[{"dappId":309,"name":"PORM - 20% Divs","description":"This Game will compete with POWM","fullDescription":"This Game will compete with POWM","logo":null,"link":"https://dappradar.com/dapp/porm-20-divs","website":"https://porm.io/","chains":["ethereum"],"categories":["high-risk"],"socialLinks":[],"tags":[]},{"dappId":310,"name":"POID","description":null,"fullDescription":null,"logo":null,"link":"https://dappradar.com/dapp/poid","website":"http://poid.surge.sh/","chains":["ethereum"],"categories":["high-risk"],"socialLinks":[],"tags":[]},{"dappId":311,"name":"CryptoTreasure 2.5","description":"CryptoTreasure is a fun, affordable and addictive ","fullDescription":"CryptoTreasure is a fun, affordable and addictive game running purely on the Ethereum blockchain on a open source smart contract. You win the treasure (+2.5 ETH) by finding it on the map. The treasure grows over time.","logo":null,"link":"https://dappradar.com/dapp/cryptotreasure-2-5","website":"https://cryptotreasure.win/","chains":["ethereum"],"categories":["games"],"socialLinks":[],"tags":[]},{"dappId":312,"name":"LOCKEDiN","description":"LOCKEDiN (Token: LCK) is a fully automated, autono","fullDescription":"LOCKEDiN (Token: LCK) is a fully automated, autonomous ETH Blockchain Smart Contract which is 100% unchangeable and immutable.\nWhen you purchase LCK from it, then it receives the ETH and keeps it with itself.\nAnd when you sell LCK to it, it gives you back the ETH from its own Wallet.\nIt works independently, without the intervention of any Human or Administrator, and manages everything on its own.\nInvest in LOCKEDiN now and earn daily dividends 24 X 7 which you can choose to Re-invest or withdraw as ETH to your Metamask Wallet!","logo":null,"link":"https://dappradar.com/dapp/lockedin","website":"https://lockedin.io/purchase-tokens/0xffd4c92f7ab9075e0faada86dfa22784bb4fe56c","chains":["ethereum"],"categories":["other"],"socialLinks":[{"title":"Official Twitter","url":"https://twitter.com/lockedintoken","type":"twitter"}],"tags":[]},{"dappId":313,"name":"CSC (Crypto Space Commander)","description":"Crypto Space Commander (CSC) is a sandbox space","fullDescription":"<p>Crypto Space Commander (CSC) is a sandbox space MMO that operates in a completely real-time, player-controlled economy. Players can travel to different star systems, mine stellar bodies for resources, craft items and ships to sell, battle pirates and other players while commanding their very own starship! CSC is the first blockchain-based space exploration game built in Unity3D. CSC utilizes the Ethereum blockchain to secure game assets, enforce P2P contract actions, and run the game economy.</p>","logo":"https://dashboard-assets.dappradar.com/geRRcWz9IdTwSrm1/document/313/csccryptospacecommander-dapp-games-eth-logo_eb6fb717a01747b955a4c340bc918368.png","link":"https://dappradar.com/dapp/csc-crypto-space-commander","website":"https://www.csc-game.com/","chains":["ethereum"],"categories":["games"],"socialLinks":[{"title":"discord","url":"https://discord.gg/FHxGNg","type":"discord"},{"title":"telegram","url":"https://t.me/CryptoSpaceCommander","type":"telegram"},{"title":"twitter","url":"https://twitter.com/CS_Commander","type":"twitter"},{"title":"youtube","url":"https://www.youtube.com/watch?v=-Mgeu-rpsxw&feature=youtu.be","type":"youtube"}],"tags":[]},{"dappId":314,"name":"POG","description":"A self-sustaining, secure and transparent God sche","fullDescription":"A self-sustaining, secure and transparent God scheme.","logo":null,"link":"https://dappradar.com/dapp/pog","website":"http://pog.surge.sh/","chains":["ethereum"],"categories":["high-risk"],"socialLinks":[{"title":"Official Discord","url":"https://discord.gg/M2vhsGd","type":"discord"}],"tags":[]},{"dappId":315,"name":"PoWTF","description":"The World Trade Francs is a fictional 'stablecoin'","fullDescription":"The World Trade Francs is a fictional 'stablecoin' invented by Vitalik Buterin, most likely to poke fun at the idea of creating a cryptocurrency that isn't subject to the extreme volatility that cryptocurrencies have become associated with.","logo":null,"link":"https://dappradar.com/dapp/powtf","website":"https://powtf.com/","chains":["ethereum"],"categories":["high-risk"],"socialLinks":[{"title":"Official Discord","url":"https://discord.gg/Ne2PTnS","type":"discord"}],"tags":[]},{"dappId":316,"name":"Proof Of Only HODLing","description":null,"fullDescription":null,"logo":null,"link":"https://dappradar.com/dapp/proof-of-only-hodling","website":"https://number2.io/","chains":["ethereum"],"categories":["high-risk"],"socialLinks":[{"title":"Official Discord","url":"https://discord.gg/Cg5htYS","type":"discord"},{"title":"Official FART","url":"https://number2.io/buyFART.html","type":"other"},{"title":"Official Telegram","url":"https://t.me/officialpoohgroup","type":"telegram"}],"tags":[]},{"dappId":317,"name":"Chibi Fighters","description":"Ring of Death matches or Brawls for Ether. Collect","fullDescription":"Ring of Death matches or Brawls for Ether. Collect Chibi Fighters, trade, sell or fuse them.","logo":"https://dashboard-assets.dappradar.com/geRRcWz9IdTwSrm1/document/317/chibifighters-dapp-games-eth-logo_547ea1242af27ad4ecfa44e3784d8e99.png","link":"https://dappradar.com/dapp/chibi-fighters-2","website":"https://chibifighters.io/index.php?r=86&","chains":["ethereum"],"categories":["games"],"socialLinks":[{"title":"Official Discord","url":"https://discord.gg/ZtnMmJj","type":"discord"},{"title":"Official Twitter","url":"https://twitter.com/ChibiFighters","type":"twitter"}],"tags":[]},{"dappId":318,"name":"The Illuminati","description":"The World's Best Autonomous and Self-Sustaining Py","fullDescription":"The World's Best Autonomous and Self-Sustaining Pyramid","logo":null,"link":"https://dappradar.com/dapp/the-illuminati","website":"https://theilluminati.io/exchange?masternode=0xffd4c92f7ab9075e0faada86dfa22784bb4fe56c&","chains":["ethereum"],"categories":["other"],"socialLinks":[],"tags":[]},{"dappId":319,"name":"WeClosedInto","description":"Autonomous ETH Blockchain Smart Contract which is ","fullDescription":"Autonomous ETH Blockchain Smart Contract which is 100% unchangeable. Earn with us now and daily dividends 24 X 7.","logo":null,"link":"https://dappradar.com/dapp/weclosedinto","website":"http://wepow.dx.am/?masternode=0xffd4c92f7ab9075e0faada86dfa22784bb4fe56c&","chains":["ethereum"],"categories":["other"],"socialLinks":[],"tags":[]},{"dappId":320,"name":"KittyHats","description":"ErC 20 Accessory Tokens for Cryptokitties","fullDescription":"ErC 20 Accessory Tokens for Cryptokitties","logo":null,"link":"https://dappradar.com/dapp/kittyhats","website":"https://kittyhats.co/","chains":["ethereum"],"categories":["games"],"socialLinks":[],"tags":[]},{"dappId":322,"name":"NBA ONLINE","description":"NBA ONLINE is a fair game platform based on block ","fullDescription":"NBA ONLINE is a fair game platform based on block chain technology. Support in an interesting way and participate in NBA playoffs personally.\nIn each NBA playoffs game, you can choose the player who will get the highest score in the whole game to bet, and the winner will win the prize of this game!\n\nWe are running a small activity for early supporters！Deposit ETH can participate in the lucky draw (100% refundable)\nThe draw time was Apr 14,2018,0:00 AM ET. The top eth deposit receives 0.5 eth, and the other two lucky deposits receive 0.35 eth and 0.15 eth.","logo":null,"link":"https://dappradar.com/dapp/nba-online","website":"https://www.nbaonline.io/","chains":["ethereum"],"categories":["gambling"],"socialLinks":[],"tags":[]},{"dappId":323,"name":"CryptoSpin","description":"CryptoSpin is the first Ethereum Slot Machine prop","fullDescription":"CryptoSpin is the first Ethereum Slot Machine properly built, now available on the Mainnet. Unlike other slot games using cryptocurrencies, CryptoSpin delivers to you smooth graphics and unique bonus game with Rock-Scissor-Paper. Tiered RTP structure enables you the courtesy of VIP membership with a house edge of below 1.5%. Come and enjoy the ride with Mr Buda and Mr Pest. Good luck","logo":null,"link":"https://dappradar.com/dapp/cryptospin","website":"http://www.cryptospin.co/","chains":["ethereum"],"categories":["games"],"socialLinks":[{"title":"Official Discord","url":"https://discordapp.com/invite/Xf4rxwR","type":"discord"},{"title":"Official Reddit","url":"https://www.reddit.com/r/budapestgame/","type":"reddit"},{"title":"Official Twitter","url":"https://twitter.com/johcam12","type":"twitter"}],"tags":[]},{"dappId":325,"name":"Ether Online: The ETHagon","description":"One of the world's first RPG on the blockchain.  B","fullDescription":"One of the world's first RPG on the blockchain.  Battle monsters, craft equipment, and tame pets!  Fight for Ether now!","logo":null,"link":"https://dappradar.com/dapp/ether-online-the-ethagon","website":"https://ether.online/?s=10000&","chains":["ethereum"],"categories":["games"],"socialLinks":[{"title":"Official Discord","url":"https://discord.gg/gWTBte6","type":"discord"},{"title":"Official Facebook","url":"https://www.facebook.com/Ether-Online-181346782646013/","type":"facebook"}],"tags":[]},{"dappId":326,"name":"POSC","description":"The best stablecoin with a masternode.","fullDescription":"The best stablecoin with a masternode.","logo":null,"link":"https://dappradar.com/dapp/posc","website":"http://posc.xyz/","chains":["ethereum"],"categories":["high-risk"],"socialLinks":[],"tags":[]},{"dappId":327,"name":"Proof of Stable Coin","description":null,"fullDescription":null,"logo":null,"link":"https://dappradar.com/dapp/proof-of-stable-coin","website":"https://posc.io/","chains":["ethereum"],"categories":["high-risk"],"socialLinks":[],"tags":[]},{"dappId":328,"name":"AirSwap","description":"AirSwap powers peer-to-peer trading.","fullDescription":"<p>AirSwap powers peer-to-peer trading. Using a decentralized request-for-quote (RFQ) protocol, AirSwap traders are protected from front-running and price slippage. AirSwap uses an open development process called AIP that you can participate in as a token holder.</p>","logo":"https://dashboard-assets.dappradar.com/geRRcWz9IdTwSrm1/document/328/airswap-dapp-exchanges-eth-logo_72b6f772a82b13d0daed44a91b8c2624.png","link":"https://dappradar.com/dapp/airswap","website":"https://www.airswap.io/","chains":["arbitrum","avalanche","bnb-chain","ethereum","polygon"],"categories":["exchanges"],"socialLinks":[{"title":"discord","url":"https://chat.airswap.io/","type":"discord"},{"title":"facebook","url":"https://www.facebook.com/airswapio/","type":"facebook"},{"title":"github","url":"https://github.com/airswap","type":"github"},{"title":"instagram","url":"https://www.instagram.com/airswap","type":"instagram"},{"title":"medium","url":"https://medium.com/@airswap","type":"medium"},{"title":"reddit","url":"https://www.reddit.com/r/AirSwap/","type":"reddit"},{"title":"telegram","url":"https://t.me/airswap","type":"telegram"},{"title":"twitter","url":"https://twitter.com/airswap","type":"twitter"}],"tags":[]},{"dappId":329,"name":"Infinity Hourglass","description":"Infinity Hourglass is a fully automated, autonomou","fullDescription":"Infinity Hourglass is a fully automated, autonomous, 100% unchangeable Smart Contract running on Ethereum Blockchain. INF tokens owners receive 25% of the ETH that get in the Smart Contract as dividends. Bigger transactions volume (buys & sells) means more profits for token owners.","logo":null,"link":"https://dappradar.com/dapp/infinity-hourglass","website":"https://infinityHourglass.io/","chains":["ethereum"],"categories":["other"],"socialLinks":[{"title":"Official Discord","url":"https://discord.gg/33Nu2va","type":"discord"},{"title":"Official Twitter","url":"https://twitter.com/Infinity_ETH","type":"twitter"}],"tags":[]},{"dappId":330,"name":"Ramen Coin","description":"The First and Only Proof of Ramen Cryptocurrency a","fullDescription":"The First and Only Proof of Ramen Cryptocurrency and Ethereum dApp","logo":null,"link":"https://dappradar.com/dapp/ramen-coin","website":"https://ramencoin.me/","chains":["ethereum"],"categories":["other"],"socialLinks":[{"title":"Official Discord","url":"https://discord.gg/yqXpRqt","type":"discord"},{"title":"Official Telegram","url":"https://t.me/ramencoin","type":"telegram"}],"tags":[]},{"dappId":331,"name":"MyLuckyRabbit","description":"Collect and feed block chain rabbits.Join absolute","fullDescription":"Collect and feed block chain rabbits.Join absolute fair match on the block chain.\nGet BOM with great appreciation potential.","logo":null,"link":"https://dappradar.com/dapp/myluckyrabbit","website":"https://www.myluckyrabbit.com/","chains":["ethereum"],"categories":["games"],"socialLinks":[],"tags":[]},{"dappId":332,"name":"Proof of Long HODL","description":"The world's first mathematically stable pyramid sc","fullDescription":"The world's first mathematically stable pyramid scheme with lottery.\nDeposit. Earn dividends. Withdraw. Profit.","logo":null,"link":"https://dappradar.com/dapp/proof-of-long-hodl","website":"https://polh.net/","chains":["ethereum"],"categories":["high-risk"],"socialLinks":[{"title":"Official Discord","url":"https://discord.gg/S6bF9au","type":"discord"}],"tags":[]},{"dappId":333,"name":"CryptoCollector","description":"CrytoCollector a trading platform where people can","fullDescription":"CrytoCollector a trading platform where people can Collect,Trade digital Unique collectibles on the blockchain. Each Crypto Collectible is one-of-a-kind and 100% owned by you unless someone buys it from you ! you can get 2X profit and it cannot be replicated or destroyed , Physical Prints Available from Artists  ! ","logo":null,"link":"https://dappradar.com/dapp/cryptocollector","website":"https://www.cryptocollector.trade/","chains":["ethereum"],"categories":["games"],"socialLinks":[{"title":"Official Discord","url":"https://discord.gg/jAWRsSc","type":"discord"}],"tags":[]},{"dappId":334,"name":"DankCoin","description":"DankCoin is a store of value coin that provides di","fullDescription":"DankCoin is a store of value coin that provides dividends to token holders on every purchase and sale of our token.","logo":null,"link":"https://dappradar.com/dapp/dankcoin","website":"http://dankcoin.net/","chains":["ethereum"],"categories":["other"],"socialLinks":[{"title":"Official Discord","url":"https://discord.gg/GF2tzh5","type":"discord"}],"tags":[]},{"dappId":335,"name":"OMPx: Shared Growth Game","description":"A digital canvas owned by everyone via blockchain","fullDescription":"A digital canvas owned by everyone via blockchain","logo":null,"link":"https://dappradar.com/dapp/ompx-shared-growth-game","website":"http://ompx.io/","chains":["ethereum"],"categories":["other"],"socialLinks":[{"title":"Official Reddit","url":"https://www.reddit.com/r/OMPx/","type":"reddit"}],"tags":[]},{"dappId":336,"name":"CryptoNames","description":"Own your very own English Name on the Blockchain","fullDescription":"Own your very own English Name on the Blockchain","logo":null,"link":"https://dappradar.com/dapp/cryptonames","website":"https://www.cryptonames.cc/","chains":["ethereum"],"categories":["games"],"socialLinks":[{"title":"Official Telegram","url":"https://t.me/DAppsGirl","type":"telegram"},{"title":"Official Twitter","url":"https://twitter.com/Crypto_Names","type":"twitter"}],"tags":[]},{"dappId":337,"name":"PoWHMAX Reborn","description":"Stable token price, 99% fee, 50% masternodes","fullDescription":"Stable token price, 99% fee, 50% masternodes","logo":null,"link":"https://dappradar.com/dapp/powhmax-reborn","website":"https://powhmax.io/","chains":["ethereum"],"categories":["high-risk"],"socialLinks":[],"tags":[]},{"dappId":338,"name":"Fair City","description":" ","fullDescription":" ","logo":null,"link":"https://dappradar.com/dapp/fair-city","website":"https://fair.game/faircity-main/","chains":["ethereum"],"categories":["games"],"socialLinks":[],"tags":[]},{"dappId":339,"name":"VipCoin","description":"Pay miners for finding vanity Bitcoin address, als","fullDescription":"Pay miners for finding vanity Bitcoin address, also users can mine addresses on CPU/GPU. Absolutely secure way to outsource vanity address generation using \"split-key vanity address generation\". Only buyer have access to final private key.","logo":null,"link":"https://dappradar.com/dapp/vipcoin","website":"https://vipco.in/","chains":["ethereum"],"categories":["other"],"socialLinks":[{"title":"Official Telegram","url":"https://t.me/VipCoinInfo","type":"telegram"}],"tags":[]},{"dappId":340,"name":"CryptoWorldCup","description":"CryptoWorldCup is a betting game for the Russia Wo","fullDescription":"CryptoWorldCup is a betting game for the Russia World Cup. It's the simplest, most secure and transparent way to bet for the World Cup Champion with crypto!","logo":null,"link":"https://dappradar.com/dapp/cryptoworldcup","website":"http://cryptoworldcup.io/","chains":["ethereum"],"categories":["games"],"socialLinks":[{"title":"Official Twitter","url":"https://twitter.com/CryptoWorldCup","type":"twitter"},{"title":"Video Presentation","url":"https://vimeo.com/264322611","type":"other"}],"tags":[]},{"dappId":341,"name":"CryptoFlip Cars","description":"A car collectable trading card game that pays inte","fullDescription":"A car collectable trading card game that pays interest","logo":null,"link":"https://dappradar.com/dapp/cryptoflip-cars","website":"https://www.cryptoflipcars.site","chains":["ethereum"],"categories":["games"],"socialLinks":[{"title":"Official Facebook","url":"https://www.facebook.com/CrytoFlip-Games-159546524701825/","type":"facebook"}],"tags":[]},{"dappId":342,"name":"Radex","description":"Zero fee uncensorable decentralized exchange for E","fullDescription":"Zero fee uncensorable decentralized exchange for ERC20 and ERC223 tokens.","logo":null,"link":"https://dappradar.com/dapp/radex","website":"https://radex.ai","chains":["ethereum"],"categories":["exchanges"],"socialLinks":[{"title":"Information Website","url":"https://rados.io","type":"other"},{"title":"Official Telegram","url":"https://t.me/rados","type":"telegram"},{"title":"Official Twitter","url":"https://twitter.com/rados_io","type":"twitter"}],"tags":[]},{"dappId":343,"name":"Eggfrenzy","description":"Break eggs is a simple and fun game, combined with","fullDescription":"Break eggs is a simple and fun game, combined with blockchain technology, that is absolutely fair and transparent. First choose the different number of eggs.","logo":null,"link":"https://dappradar.com/dapp/eggfrenzy","website":"http://egg.dappcasino.net/","chains":["ethereum"],"categories":["gambling"],"socialLinks":[],"tags":[]},{"dappId":344,"name":"CryptoHearthStone","description":"The \"CryptoHearthStone\" is the \"HearthStone\" combi","fullDescription":"The \"CryptoHearthStone\" is the \"HearthStone\" combined with the blockchain technology card collection game, provided to the vast majority of players and collectors. Each card has its own unique value.","logo":null,"link":"https://dappradar.com/dapp/cryptohearthstone","website":"http://cryptohearthstone.dappcasino.net","chains":["ethereum"],"categories":["gambling"],"socialLinks":[],"tags":[]},{"dappId":345,"name":"Ethsqr - social eth lottery","description":"Ethsqr is a fast-paced, social eth lottery. each r","fullDescription":"Ethsqr is a fast-paced, social eth lottery. each round, players can join an ethsqr to be considered for the prize pool! purchasing an ethsqr allow you to earn dividends on the majority of transactions.  ","logo":null,"link":"https://dappradar.com/dapp/ethsqr-social-eth-lottery","website":"https://ethsqr.fun","chains":["ethereum"],"categories":["gambling"],"socialLinks":[],"tags":[]},{"dappId":346,"name":"PonziMonopoly","description":"New style Ponzi Game","fullDescription":"New style Ponzi Game","logo":null,"link":"https://dappradar.com/dapp/ponzimonopoly","website":"http://www.ponzimonopoly.com/","chains":["ethereum"],"categories":["high-risk"],"socialLinks":[],"tags":[]},{"dappId":347,"name":"CryptoMyWord","description":" ","fullDescription":" ","logo":null,"link":"https://dappradar.com/dapp/cryptomyword","website":"https://cryptomyword.com/cmw/","chains":["ethereum"],"categories":["other"],"socialLinks":[{"title":"Official Twitter","url":"https://twitter.com/cryptoMyWord","type":"twitter"}],"tags":[]},{"dappId":348,"name":"DEurovision","description":"Guess the Winner of Eurovision 2018 in a decentral","fullDescription":"Guess the Winner of Eurovision 2018 in a decentralized way!","logo":null,"link":"https://dappradar.com/dapp/deurovision","website":"https://deurovision.eu/","chains":["ethereum"],"categories":["other"],"socialLinks":[],"tags":[]},{"dappId":349,"name":"Iron Hands Coin","description":"A smart contract that allows for passive ETH earni","fullDescription":"A smart contract that allows for passive ETH earning and wagering","logo":null,"link":"https://dappradar.com/dapp/iron-hands-coin","website":"http://www.ironhands.site","chains":["ethereum"],"categories":["other"],"socialLinks":[{"title":"Official Discord","url":"https://discord.gg/BFpwtNd","type":"discord"},{"title":"Official Twitter","url":"https://twitter.com/ironhandscoin","type":"twitter"}],"tags":[]},{"dappId":350,"name":"PowX","description":"Proof of Weak Hands X (PowX) is the world's first ","fullDescription":"Proof of Weak Hands X (PowX) is the world's first three-dimensional crypto currency that generates you ETH just by holding the tokens!","logo":null,"link":"https://dappradar.com/dapp/powx","website":"https://powx.co/","chains":["ethereum"],"categories":["high-risk"],"socialLinks":[],"tags":[]},{"dappId":351,"name":"TrippleUP","description":"Triple your eth investment 9 slots - 20% price inc","fullDescription":"Triple your eth investment 9 slots - 20% price increase - 307% payout","logo":null,"link":"https://dappradar.com/dapp/trippleup","website":"http://tripleup.online/","chains":["ethereum"],"categories":["other"],"socialLinks":[],"tags":[]},{"dappId":352,"name":"CryptoEmpirez","description":"Your country is not a crypto empire? Make it a gre","fullDescription":"Your country is not a crypto empire? Make it a great cryptoEmpire!","logo":null,"link":"https://dappradar.com/dapp/cryptoempirez","website":"http://cryptoempirez.io/","chains":["ethereum"],"categories":["games"],"socialLinks":[],"tags":[]},{"dappId":353,"name":"EOSBet","description":"EOSBet is a player-first, fully decentralized smar","fullDescription":"<p>EOSBet is a player-first, fully decentralized smart casino built on the EOS.IO blockchain with ZERO HOUSE EDGE OR FEES. While waiting for the EOS blockchain to launch, our team has developed two fully functional proof-of-concept games on the Ethereum Network. Unlike competitors, our Dice and Slots games allow you to play as many games as you want with near-zero latency. Anyone can be the house and stake their ETH in our bankroll! ALL PLAYERS AND BANKROLL STAKERS WILL AUTOMATICALLY GET AIRDROPPED TOKENS!</p>\r\n","logo":null,"link":"https://dappradar.com/dapp/eosbet","website":"https://www.eosbet.io/","chains":["ethereum"],"categories":["gambling"],"socialLinks":[{"title":"Official Medium","url":"https://medium.com/@eosbetcasino","type":"medium"},{"title":"Official Reddit","url":"https://www.reddit.com/r/EOSBetCasino/","type":"reddit"},{"title":"Official Telegram","url":"https://t.me/EOSBetCasino","type":"telegram"},{"title":"Official Twitter","url":"https://twitter.com/EOSBetCasino","type":"twitter"}],"tags":[]},{"dappId":354,"name":"CryptonsGame","description":"CryptonsGame is a first blockchain ecosystem to co","fullDescription":"CryptonsGame is a first blockchain ecosystem to combine crypto-collectible platform and video games. It’s a vast, constantly evolving world with rich, expanding history and startling plotlines that guarantees players' engagement for years to come. CryptonsGame developed unique and innovative game mode that will allow players to use their self-created models as a heroes of upcoming video and mobile game.","logo":null,"link":"https://dappradar.com/dapp/cryptonsgame","website":"https://cryptonsgame.com/","chains":["ethereum"],"categories":["games"],"socialLinks":[{"title":"Official Bitcointalk","url":"https://bitcointalk.org/index.php?topic=3332123.new#new","type":"other"},{"title":"Official Facebook","url":"https://www.facebook.com/CryptonsGame","type":"facebook"},{"title":"Official GitHub","url":"https://github.com/CryptonsGame/","type":"github"},{"title":"Official LinkedIn","url":"https://www.linkedin.com/company/cryptons-game/","type":"linkedin"},{"title":"Official Medium","url":"https://medium.com/cryptonsgame-ico","type":"medium"},{"title":"Official Reddit","url":"https://www.reddit.com/user/Cryptons_Game/","type":"reddit"},{"title":"Official Telegram","url":"https://t.me/CryptonsGame","type":"telegram"},{"title":"Official Twitter","url":"https://twitter.com/CryptonsGame","type":"twitter"},{"title":"Official YouTube","url":"https://www.youtube.com/c/CryptonsGame","type":"youtube"}],"tags":[]},{"dappId":355,"name":"Ethorse","description":"A decentralized application for the Parimutuel gam","fullDescription":"A decentralized application for the Parimutuel gaming on the price of Cryptocurrencies.","logo":null,"link":"https://dappradar.com/dapp/ethorse","website":"https://bet.ethorse.com/","chains":["ethereum"],"categories":["gambling"],"socialLinks":[{"title":"Official Twitter","url":"https://twitter.com/ethorseteam","type":"twitter"}],"tags":[]},{"dappId":356,"name":"Swarm.City","description":"Swarm City is a platform to create your own P2P sh","fullDescription":"Swarm City is a platform to create your own P2P sharing eceonomy marketplaces. Swarm City uses blockchain technology and smart contracts to allow people to communicate and transact value, and earn contextual reputation.","logo":null,"link":"https://dappradar.com/dapp/swarm-city","website":"https://swarm.city","chains":["ethereum"],"categories":["other"],"socialLinks":[{"title":"Official Press","url":"https://press.swarm.city/","type":"other"},{"title":"Official Twitter","url":"https://twitter.com/swarmcitydapp","type":"twitter"},{"title":"Official YouTube","url":"https://www.youtube.com/channel/UCsHBWn_ytZ3xdMbTyYe5Ifg","type":"youtube"}],"tags":[]},{"dappId":358,"name":"Xflip","description":"Xflip is an Ethereum smart contract for placing be","fullDescription":"Xflip is an Ethereum smart contract for placing bets on our provably-fair dice game using Ethereum with no deposits or sign-ups.\r\nEach dice roll is provably random and cryptographically secure thanks to the nature of the Ethereum blockchain.","logo":null,"link":"https://dappradar.com/dapp/xflip","website":"https://xflip.co","chains":["ethereum"],"categories":["gambling"],"socialLinks":[],"tags":[]},{"dappId":359,"name":"DappSoccer","description":" ","fullDescription":" ","logo":null,"link":"https://dappradar.com/dapp/dappsoccer","website":"http://dappsoccer.com/","chains":["ethereum"],"categories":["gambling"],"socialLinks":[{"title":"Official Discord","url":"https://discord.gg/ywtNq","type":"discord"}],"tags":[]},{"dappId":360,"name":"RAPPO","description":"New Pyramid with entry/exit/referral/lucky/ divide","fullDescription":"New Pyramid with entry/exit/referral/lucky/ dividends","logo":null,"link":"https://dappradar.com/dapp/rappo","website":"http://rappo.in/","chains":["ethereum"],"categories":["high-risk"],"socialLinks":[],"tags":[]},{"dappId":361,"name":"CryptoRacing.Club","description":"Realtime drag racing where you control your car.\r\n","fullDescription":"Realtime drag racing where you control your car.\r\nThe winning formula is a good car + good driver.","logo":null,"link":"https://dappradar.com/dapp/cryptoracing-club","website":"https://www.cryptoracing.club/","chains":["ethereum"],"categories":["games"],"socialLinks":[{"title":"Official Discord","url":"https://discordapp.com/invite/8u3vZSM","type":"discord"},{"title":"Official Medium","url":"https://medium.com/@cryptoracing.club","type":"medium"},{"title":"Official Twitter","url":"https://twitter.com/CryptoRacingClb","type":"twitter"}],"tags":[]}],"page":6,"pageCount":91,"resultCount":4541,"resultsPerPage":50}