{"success":true,"results":[{"dappId":66,"name":"KimJongCrypto","description":"Kim Jong Crypto is a blockchain collectible dApp w","fullDescription":"Kim Jong Crypto is a blockchain collectible dApp where you can trade virtual erc-20 virtual images of the fearless leader of North Korea Kim Jong Un.","logo":null,"link":"https://dappradar.com/dapp/kimjongcrypto","website":"http://www.kimjongcrypto.com/","chains":["ethereum"],"categories":["games"],"socialLinks":[{"title":"Official Facebook","url":"https://www.facebook.com/kimjongcrypto","type":"facebook"},{"title":"Official Reddit","url":"https://www.reddit.com/r/kimjongcrypto/","type":"reddit"},{"title":"Official Twitter","url":"https://twitter.com/kimjcrypto","type":"twitter"}],"tags":[]},{"dappId":67,"name":"Cryptolotto","description":"The main idea of Cryptolotto is straightforward: p","fullDescription":"The main idea of Cryptolotto is straightforward: people from all over the world contribute equal amounts of ETH to one wallet during the set period of time. When a timer ends, this smart-contract powered wallet automatically sends all received ETH to one randomly chosen wallet-participant.","logo":null,"link":"https://dappradar.com/dapp/cryptolotto-3","website":"https://cryptolotto.cc","chains":["ethereum"],"categories":["gambling"],"socialLinks":[{"title":"Youtube","url":"https://www.youtube.com/watch?v=ma2KYqmsdhQ&feature=youtu.be","type":"youtube"}],"tags":[]},{"dappId":69,"name":"EmojiBlockchain","description":"Collect and trade emoji on the Ethereum blockchain","fullDescription":"Collect and trade emoji on the Ethereum blockchain","logo":null,"link":"https://dappradar.com/dapp/emojiblockchain","website":"https://emojiblockchain.co/","chains":["ethereum"],"categories":["games"],"socialLinks":[],"tags":[]},{"dappId":70,"name":"Ether Voxel Space","description":"3d world made of voxels stored on the ethereum blo","fullDescription":"3d world made of voxels stored on the ethereum blockchain","logo":null,"link":"https://dappradar.com/dapp/ether-voxel-space","website":"https://ethervoxel.space","chains":["ethereum"],"categories":["other"],"socialLinks":[],"tags":[]},{"dappId":71,"name":"Etherjackpot","description":"Jackpot ether game","fullDescription":"Jackpot ether game","logo":null,"link":"https://dappradar.com/dapp/etherjackpot","website":"http://jackpot.getforge.io/","chains":["ethereum"],"categories":["gambling"],"socialLinks":[],"tags":[]},{"dappId":72,"name":"EtherSpace","description":"EtherSpace is a brand new kind of game that runs o","fullDescription":"EtherSpace is a brand new kind of game that runs on blockchain technology. All celestial objects available on our site are stored on the Ethereum blockchain as ERC721 tokens. Each token is one-of-a-kind and represents a particular astronomical object. The price of each token increases with each transaction. When you buy a token, watch out: anyone can take it away from you by paying up to double what you paid.","logo":null,"link":"https://dappradar.com/dapp/etherspace","website":"http://etherspace.tech/","chains":["ethereum"],"categories":["games"],"socialLinks":[],"tags":[]},{"dappId":73,"name":"GOAL Bonanza","description":"Goal Bonanza is decentralized, self-regulating, fo","fullDescription":"Goal Bonanza is decentralized, self-regulating, football lottery platform based on ERC20 token standard and ethereum blockchain, where players predict the final score of a single football game by backing at least 1 out of 10 available options. Unlike traditional bookmakers and betting exchanges that offer unattractive odds and low returns, in Goal Bonanza players have the chance to win multi-million returns from a single $1 dollar bet, but also win additional rewards in form of badges and tokens through competition, achievements, status, recognition and collaboration with other players.","logo":null,"link":"https://dappradar.com/dapp/goal-bonanza","website":"https://www.goalbonanza.com","chains":["ethereum"],"categories":["other"],"socialLinks":[{"title":"Official Facebook","url":"https://www.facebook.com/goalbonanza/","type":"facebook"},{"title":"Official Reddit","url":"https://www.reddit.com/r/GoalBonanza/","type":"reddit"},{"title":"Official Twitter","url":"https://twitter.com/bonanzagoal","type":"twitter"}],"tags":[]},{"dappId":74,"name":"CryptoMasterpieces","description":"Buy and Trade One-of-a-Kind Collectible Artworks P","fullDescription":"Buy and Trade One-of-a-Kind Collectible Artworks Powered by Blockchain Technology","logo":null,"link":"https://dappradar.com/dapp/cryptomasterpieces","website":"http://www.cryptomasterpieces.com","chains":["ethereum"],"categories":["games"],"socialLinks":[{"title":"Official Twitter","url":"https://twitter.com/EthMasterpieces","type":"twitter"},{"title":"Whitepaper","url":"http://bit.ly/cryptomasterpieces-whitepaper","type":"other"}],"tags":[]},{"dappId":76,"name":"Leeroy","description":"Decentralized Social Media","fullDescription":"Decentralized Social Media","logo":null,"link":"https://dappradar.com/dapp/leeroy","website":"https://leeroy.io","chains":["ethereum"],"categories":["other"],"socialLinks":[],"tags":[]},{"dappId":77,"name":"WorldCryptoCup","description":"Grab your favorite team and win the World Cup on t","fullDescription":"Grab your favorite team and win the World Cup on the Blockchain! With WorldCryptoCup you can acquire your favorite team of the world cup 2018 and earn 10% on every sales of their players (40% for the first sale). \n\nOnce you purchase a team, anyone can acquire it by paying 2x the price you paid. Players can be acquired for 1.5x the price paid.","logo":null,"link":"https://dappradar.com/dapp/worldcryptocup","website":"https://worldcryptocup.com/","chains":["ethereum"],"categories":["high-risk"],"socialLinks":[],"tags":[]},{"dappId":80,"name":"Crypto Mayor","description":"A Crypto Collectible Game trading cities as the Ma","fullDescription":"A Crypto Collectible Game trading cities as the Mayor. ","logo":null,"link":"https://dappradar.com/dapp/crypto-mayor","website":"https://www.cryptomayor.io","chains":["ethereum"],"categories":["games"],"socialLinks":[],"tags":[]},{"dappId":82,"name":"S0lar System For Sale","description":"Buy and sell planets and moons in our solar system","fullDescription":"Buy and sell planets and moons in our solar system. Increase or decrease the price, update the sales, and see if you can flip your favorite planet.","logo":null,"link":"https://dappradar.com/dapp/s0lar-system-for-sale","website":"http://planets4sale.com/","chains":["ethereum"],"categories":["games"],"socialLinks":[],"tags":[]},{"dappId":83,"name":"Ether Basketball","description":"Purchase NBA teams on the blockchain","fullDescription":"Purchase NBA teams on the blockchain","logo":null,"link":"https://dappradar.com/dapp/ether-basketball","website":"http://etherbasketball.co/","chains":["ethereum"],"categories":["games"],"socialLinks":[],"tags":[]},{"dappId":84,"name":"Crypland","description":"Crypland is a virtual land full of various assets ","fullDescription":"Crypland is a virtual land full of various assets that you can own. Some assets are rare while some can be common. Each asset has a worth which determines how valuable it is.","logo":null,"link":"https://dappradar.com/dapp/crypland","website":"https://crypland.com/","chains":["ethereum"],"categories":["games"],"socialLinks":[],"tags":[]},{"dappId":86,"name":"Ether#COLOR","description":"the colorful ΞETH investing game","fullDescription":"the colorful ΞETH investing game","logo":null,"link":"https://dappradar.com/dapp/ether-color","website":"https://ethercolors.co","chains":["ethereum"],"categories":["games"],"socialLinks":[],"tags":[]},{"dappId":87,"name":"IAmCryptoRich","description":"Exclusive platform for rich people.","fullDescription":"Exclusive platform for rich people.","logo":null,"link":"https://dappradar.com/dapp/iamcryptorich","website":"https://iamcryptorich.com/","chains":["ethereum"],"categories":["games"],"socialLinks":[],"tags":[]},{"dappId":88,"name":"To The Moon","description":"Fair Numbers Game on an unmined block hash","fullDescription":"Fair Numbers Game on an unmined block hash","logo":null,"link":"https://dappradar.com/dapp/to-the-moon-4","website":"https://www.tothemoon.guru","chains":["ethereum"],"categories":["gambling"],"socialLinks":[],"tags":[]},{"dappId":89,"name":"JUSTcoin","description":"The ultimate meme coin pyramid game!","fullDescription":"The ultimate meme coin pyramid game!","logo":null,"link":"https://dappradar.com/dapp/justcoin","website":"http://getjustcoin.com/","chains":["ethereum"],"categories":["other"],"socialLinks":[],"tags":[]},{"dappId":90,"name":"50 Shades of Ether","description":"the boring grey ΞETH investment game","fullDescription":"the boring grey ΞETH investment game","logo":null,"link":"https://dappradar.com/dapp/50-shades-of-ether","website":"http://50shades.ethercolors.co","chains":["ethereum"],"categories":["games"],"socialLinks":[],"tags":[]},{"dappId":91,"name":"BlockBits.io","description":"BlockBits DAPP is not just another crowdfunding pl","fullDescription":"BlockBits DAPP is not just another crowdfunding platform, it’s the innovation that sets the standard of what the ICO market urgently needs to become: safe investments and legitimate projects. For the first time investors can decide if they keep backing a project or take their money back.","logo":null,"link":"https://dappradar.com/dapp/blockbits-io","website":"https://blockbits.io","chains":["ethereum"],"categories":["other"],"socialLinks":[],"tags":[]},{"dappId":92,"name":"Ethernal Bridge","description":"Put your lovelock on the Ethernal Bridge and celeb","fullDescription":"Put your lovelock on the Ethernal Bridge and celebrate love!","logo":null,"link":"https://dappradar.com/dapp/ethernal-bridge","website":"https://ethernalbridge.net","chains":["ethereum"],"categories":["other"],"socialLinks":[],"tags":[]},{"dappId":93,"name":"Crypto Colors","description":"Trade your favourite colors!","fullDescription":"Trade your favourite colors!","logo":null,"link":"https://dappradar.com/dapp/crypto-colors","website":"https://www.cryptocolors.xyz/","chains":["ethereum"],"categories":["games"],"socialLinks":[{"title":"Official Twitter","url":"https://twitter.com/cryptocolours","type":"twitter"}],"tags":[]},{"dappId":94,"name":"CaiShen","description":"Give and receive time-locked red packets","fullDescription":"Give and receive time-locked red packets","logo":null,"link":"https://dappradar.com/dapp/caishen","website":"https://www.smarthongbao.com/","chains":["ethereum"],"categories":["other"],"socialLinks":[],"tags":[]},{"dappId":96,"name":"BitGallery","description":"Blockhain art gallery where you can purchase uniqu","fullDescription":"Blockhain art gallery where you can purchase unique collectible tokens of world famous art items with proof of token ownership stored on the Ethereum blockchain.","logo":null,"link":"https://dappradar.com/dapp/bitgallery","website":"http://www.bitgallery.co/","chains":["ethereum"],"categories":["games"],"socialLinks":[],"tags":[]},{"dappId":97,"name":"KingLovin","description":"Become King or be Dethroned for a x2 return","fullDescription":"Become King or be Dethroned for a x2 return","logo":null,"link":"https://dappradar.com/dapp/kinglovin","website":"https://kinglovin.com","chains":["ethereum"],"categories":["games"],"socialLinks":[],"tags":[]},{"dappId":98,"name":"EtherWaifus","description":"Craft and trade beautiful arts on the Ethereum blockchain!","fullDescription":"<p>Etherwaifu is a game where you collect craftable artworks. Each artwork has thousands of unique variations, and you can craft a new one by combining traits of other artworks you own.</p>\n<p>See the magic yourself! Click on the artworks below multiple times to see some variations of it.</p>","logo":"https://dashboard-assets.dappradar.com/geRRcWz9IdTwSrm1/document/98/etherwaifus-dapp-games-ethereum-logo_453d037b037eb19f79a030d21a4ea9c5.png","link":"https://dappradar.com/dapp/etherwaifus","website":"https://etherwaifu.com","chains":["ethereum"],"categories":["games"],"socialLinks":[{"title":"discord","url":"https://discord.com/invite/RvvPJjP","type":"discord"},{"title":"medium","url":"https://medium.com/@etherwaifu","type":"medium"},{"title":"reddit","url":"https://www.reddit.com/r/etherwaifu/","type":"reddit"},{"title":"telegram","url":"https://t.me/etherwaifu","type":"telegram"},{"title":"twitter","url":"https://twitter.com/etherwaifu","type":"twitter"}],"tags":[]},{"dappId":99,"name":"CryptoMines.PRO","description":"Blockchain game about investing and mining. Via Et","fullDescription":"Blockchain game about investing and mining. Via Ethereum Smart Contract.","logo":null,"link":"https://dappradar.com/dapp/cryptomines-pro","website":"https://cryptomines.pro","chains":["ethereum"],"categories":["games"],"socialLinks":[{"title":"Official Youtube","url":"https://youtu.be/VlruFNIpSPE","type":"youtube"}],"tags":[]},{"dappId":100,"name":"PoWEth","description":"Proof of Work ERC20 token with 100.000.000 maximum","fullDescription":"Proof of Work ERC20 token with 100.000.000 maximum supply.","logo":null,"link":"https://dappradar.com/dapp/poweth","website":"http://poweth.org/","chains":["ethereum"],"categories":["high-risk"],"socialLinks":[],"tags":[]},{"dappId":101,"name":"CryptoTubers","description":"Buy your favourite internet personalities!","fullDescription":"Buy your favourite internet personalities!","logo":null,"link":"https://dappradar.com/dapp/cryptotubers","website":"https://cryptotubers.co/","chains":["ethereum"],"categories":["games"],"socialLinks":[],"tags":[]},{"dappId":102,"name":"CryptoEmoji","description":"A Tycoon-style game built around the concept we co","fullDescription":"A Tycoon-style game built around the concept we coined as #Emojinomics. In this game, the player must compete with other players to acquire resources (?, ?, ?), craft unique products consuming resources (??⚡? - “Do Androids Dream of Electric Sheep”), or HODL for a later opportunity.","logo":null,"link":"https://dappradar.com/dapp/cryptoemoji","website":"http://www.cryptoemoji.io/","chains":["ethereum"],"categories":["games"],"socialLinks":[{"title":"Official Facebook","url":"https://www.facebook.com/pg/emojinomics","type":"facebook"},{"title":"Official Reddit","url":"https://www.reddit.com/r/CryptoEmoji/","type":"reddit"},{"title":"Official Twitter","url":"https://twitter.com/crypto_emoji","type":"twitter"}],"tags":[]},{"dappId":103,"name":"EtherPrincesses","description":"Purchase your favorite Disney princesses on the bl","fullDescription":"Purchase your favorite Disney princesses on the blockchain","logo":null,"link":"https://dappradar.com/dapp/etherprincesses","website":"http://etherprincesses.co/","chains":["ethereum"],"categories":["games"],"socialLinks":[],"tags":[]},{"dappId":104,"name":"Treethereum","description":"Grow a 3D generated tree","fullDescription":"Grow a 3D generated tree","logo":null,"link":"https://dappradar.com/dapp/treethereum","website":"https://www.treethereum.com/","chains":["ethereum"],"categories":["games"],"socialLinks":[],"tags":[]},{"dappId":105,"name":"CryptoGit","description":"Famous open source projects as Blockchain Smart Co","fullDescription":"Famous open source projects as Blockchain Smart Contracts! Own tokens, make money and support maintainers!\n\nWhen you purchase a Card, the card is instantly re-listed for sale at a higher price!\n\nIf someone buys your card from you - you get paid up to double the amount you originally invested in ETH!\n\n4% of profits goes to project maintainers!","logo":null,"link":"https://dappradar.com/dapp/cryptogit","website":"https://cryptogit.co","chains":["ethereum"],"categories":["games"],"socialLinks":[{"title":"Official Discord","url":"https://discord.gg/6KUgCV","type":"discord"},{"title":"Official Discord","url":"https://discord.gg/bfGy7Y5","type":"discord"},{"title":"Official Medium","url":"https://medium.com/cryptogit","type":"medium"},{"title":"Official Telegram","url":"https://t.me/CryptoGit","type":"telegram"},{"title":"Official Twitter","url":"https://twitter.com/cryptogitco","type":"twitter"}],"tags":[]},{"dappId":106,"name":"EtherEmojis","description":"The original emoji game on the blockchain ","fullDescription":"The original emoji game on the blockchain ","logo":null,"link":"https://dappradar.com/dapp/etheremojis","website":"http://etheremojis.co/","chains":["ethereum"],"categories":["games"],"socialLinks":[],"tags":[]},{"dappId":107,"name":"EtherMeals","description":"Purchase your favorite DOG on the blockchain","fullDescription":"Purchase your favorite DOG on the blockchain","logo":null,"link":"https://dappradar.com/dapp/ethermeals","website":"http://ethermeals.co/","chains":["ethereum"],"categories":["games"],"socialLinks":[],"tags":[]},{"dappId":109,"name":"CryptoSaga","description":"CryptoSaga is a decentralized RPG","fullDescription":"CryptoSaga is a decentralized RPG","logo":null,"link":"https://dappradar.com/dapp/cryptosaga","website":"https://CryptoSaga.io","chains":["ethereum"],"categories":["games"],"socialLinks":[],"tags":[]},{"dappId":110,"name":"EtherMeta","description":"The cryptogame where you can own your favorite cry","fullDescription":"The cryptogame where you can own your favorite cryptogames.","logo":null,"link":"https://dappradar.com/dapp/ethermeta","website":"http://ethermeta.co/","chains":["ethereum"],"categories":["games"],"socialLinks":[],"tags":[]},{"dappId":111,"name":"CryptoStamps","description":"CryptoStamps is the first secured trading platform","fullDescription":"CryptoStamps is the first secured trading platform integrated with the Ethereum blockchain, where people can Collect, Trade and Mine their digital stamps like traditional postal stamps on the blockchain. Each CryptoStamp is one-of-a-kind and 100% owned by you unless you get 2X profit and it cannot be replicated or destroyed","logo":null,"link":"https://dappradar.com/dapp/cryptostamps","website":"https://www.cryptostamps.co/","chains":["ethereum"],"categories":["games"],"socialLinks":[{"title":"Official Facebook","url":"https://www.facebook.com/cryptostamps/","type":"facebook"},{"title":"Official Twitter","url":"https://twitter.com/crypto_stamps","type":"twitter"},{"title":"Official Youtube","url":"https://www.youtube.com/channel/UC2d8nt9-8nTLUfysFPcgO8g","type":"youtube"}],"tags":[]},{"dappId":112,"name":"Put Your Text","description":"Put your message on the blockchain, forever","fullDescription":"Put your message on the blockchain, forever","logo":null,"link":"https://dappradar.com/dapp/put-your-text","website":"https://putyourfuckingtextonthefuckingblockchain.com/","chains":["ethereum"],"categories":["other"],"socialLinks":[{"title":"Official Twitter","url":"https://twitter.com/textblockchain","type":"twitter"}],"tags":[]},{"dappId":113,"name":"Crypto Waifus","description":"Buy, own, trade and touch your favorite anime char","fullDescription":"Buy, own, trade and touch your favorite anime characters!","logo":null,"link":"https://dappradar.com/dapp/crypto-waifus","website":"http://crypto-waifus.com/","chains":["ethereum"],"categories":["games"],"socialLinks":[{"title":"Official Discord","url":"https://discordapp.com/invite/m5KhA","type":"discord"},{"title":"Official Twitter","url":"https://twitter.com/CryptoWaifus","type":"twitter"}],"tags":[]},{"dappId":114,"name":"GameCard","description":"GameCard was built to provide a public advertising","fullDescription":"GameCard was built to provide a public advertising space for anyone looking to get their Game off the ground.\n\nWhen a place on the promo board is purchased, the owner is able to either Advertise their own business OR choose to lease out the space to others.\n\nThis unique mechanism means that the power is put back into the hands of the individual who purchases the plot of advertising, and they can generate revenue that is paid directly back to them.","logo":null,"link":"https://dappradar.com/dapp/gamecard","website":"http://gamecard.co/","chains":["ethereum"],"categories":["other"],"socialLinks":[{"title":"Github","url":"https://github.com/fluffycatware/gamecards","type":"github"}],"tags":[]},{"dappId":115,"name":"ProveIt","description":"ProveIt gives users the ability to prove that they","fullDescription":"ProveIt gives users the ability to prove that they said or possessed something, anything, without the need to rely on a trusted intermediary.","logo":null,"link":"https://dappradar.com/dapp/proveit","website":"https://canyouproveit.io/","chains":["ethereum"],"categories":["other"],"socialLinks":[],"tags":[]},{"dappId":116,"name":"MetaGame","description":"Own your favorite Dapp","fullDescription":"Own your favorite Dapp","logo":null,"link":"https://dappradar.com/dapp/metagame-2","website":"https://meta.quazr.io","chains":["ethereum"],"categories":["games"],"socialLinks":[],"tags":[]},{"dappId":117,"name":"Wyvern Exchange","description":"Decentralized digital asset exchange running on th","fullDescription":"Decentralized digital asset exchange running on the Wyvern Protocol. Buy, sell, or auction any asset representable on the Ethereum blockchain, from virtual kittens to ERC721 tokens to smart contracts.","logo":null,"link":"https://dappradar.com/dapp/wyvern-exchange","website":"https://exchange.projectwyvern.com","chains":["ethereum"],"categories":["marketplaces"],"socialLinks":[{"title":"Official Twitter","url":"https://twitter.com/wyvernexchange","type":"twitter"}],"tags":[]},{"dappId":118,"name":"Rare Claims","description":"Only 6 Tokens. 50% up on sale. 25% down every 5 ho","fullDescription":"Only 6 Tokens. 50% up on sale. 25% down every 5 hours without a sale! = Self sustainable","logo":null,"link":"https://dappradar.com/dapp/rare-claims","website":"https://rare.claims/","chains":["ethereum"],"categories":["games"],"socialLinks":[],"tags":[]},{"dappId":119,"name":"Puppychain","description":"A blockchain based puppy game for the Chinese new ","fullDescription":"A blockchain based puppy game for the Chinese new year of dog 2018","logo":null,"link":"https://dappradar.com/dapp/puppychain","website":"http://puppychain.co/","chains":["ethereum"],"categories":["games"],"socialLinks":[],"tags":[]},{"dappId":121,"name":"CryptoMovies","description":"Your favorite movies on Ethereum Blockchain","fullDescription":"Your favorite movies on Ethereum Blockchain","logo":null,"link":"https://dappradar.com/dapp/cryptomovies","website":"https://www.cryptomovies.co","chains":["ethereum"],"categories":["games"],"socialLinks":[],"tags":[]},{"dappId":123,"name":"Candy Claims","description":"Claim candy in this sweet self sustainable investm","fullDescription":"Claim candy in this sweet self sustainable investment game","logo":null,"link":"https://dappradar.com/dapp/candy-claims","website":"https://candy.claims","chains":["ethereum"],"categories":["games"],"socialLinks":[],"tags":[]},{"dappId":124,"name":"CryptoPizza","description":"What is CryptoPizza?\nCryptoPizza is an Ethereum ga","fullDescription":"What is CryptoPizza?\nCryptoPizza is an Ethereum game based on what 99.7% of the world population love the most, Pizza!","logo":null,"link":"https://dappradar.com/dapp/cryptopizza","website":"https://cryptopizza.io/","chains":["ethereum"],"categories":["games"],"socialLinks":[],"tags":[]},{"dappId":125,"name":"ForkDelta","description":null,"fullDescription":null,"logo":"https://dashboard-assets.dappradar.com/geRRcWz9IdTwSrm1/document/125/forkdelta-dapp-exchanges-eth-logo_ea2f1c8bd7ab5dc425868526fe7fd595.png","link":"https://dappradar.com/dapp/forkdelta","website":"https://forkdelta.app/","chains":["ethereum"],"categories":["exchanges"],"socialLinks":[],"tags":[]}],"page":2,"pageCount":91,"resultCount":4541,"resultsPerPage":50}