{"success":true,"results":[{"dappId":418,"name":"REPOP WORLD","description":"What if Trump and Obama had a child? Or Ellen and ","fullDescription":"What if Trump and Obama had a child? Or Ellen and Elon Musk? This is what REPOP WORLD is about. Cloning unique POPs to repopulate Mars!","logo":null,"link":"https://dappradar.com/dapp/repop-world","website":"https://repop.world","chains":["ethereum"],"categories":["games"],"socialLinks":[{"title":"Official Discord","url":"https://discord.gg/jXy8HUX ","type":"discord"},{"title":"Official Medium","url":"https://medium.com/@repop.world/how-to-play-repop-world-ec3d70f69b79","type":"medium"},{"title":"Official Telegram","url":"https://t.me/joinchat/Hw3PHVGcjBV5FYHEpHNcdQ","type":"telegram"},{"title":"Official Twitter","url":"https://twitter.com/repopworld","type":"twitter"}],"tags":[]},{"dappId":419,"name":"Proof of Community (PoC)","description":"Make 35% dividends on every buy, 15% dividends on ","fullDescription":"Make 35% dividends on every buy, 15% dividends on sells 0% transfer Fees","logo":null,"link":"https://dappradar.com/dapp/proof-of-community-poc","website":"https://poc35.co/","chains":["ethereum"],"categories":["high-risk"],"socialLinks":[{"title":"Official Discord","url":"https://discordapp.com/invite/gX7c8KZ","type":"discord"}],"tags":[]},{"dappId":420,"name":"Crypto Football","description":"Football is the world's first sport. Most of the s","fullDescription":"Football is the world's first sport. Most of the sports fans in the world are crazy about this kind of ball games. 2018 is the year of the world cup. CryptoFootball is a card game that can get the national team card on the block chain then earn ETH Rewards.In short, the more you play, the more you can earn, and further more you can fully express your favorite card game of your own national team.","logo":null,"link":"https://dappradar.com/dapp/crypto-football-3","website":"https://www.cryptosports.top/","chains":["ethereum"],"categories":["games"],"socialLinks":[],"tags":[]},{"dappId":422,"name":"PyrConnect","description":"PyrConnect is a self regulated lending platform di","fullDescription":"PyrConnect is a self regulated lending platform disrupting the Securities Licensing space.","logo":null,"link":"https://dappradar.com/dapp/pyrconnect","website":"http://PyrConnect.com/","chains":["ethereum"],"categories":["other"],"socialLinks":[],"tags":[]},{"dappId":423,"name":"Crypto And Dragons","description":"Now on presale and battle demo released! Collect m","fullDescription":"Now on presale and battle demo released! Collect monsters and train them up, then make monster corps. After that, you battle for dungeon ownerships with other players.","logo":null,"link":"https://dappradar.com/dapp/crypto-and-dragons","website":"https://cryptoanddragons.com/?ref=0xffd4c92f7ab9075e0faada86dfa22784bb4fe56c&","chains":["ethereum"],"categories":["games"],"socialLinks":[{"title":"BitcoinTalk Thread","url":"https://bitcointalk.org/index.php?topic=3479511","type":"other"}],"tags":[]},{"dappId":424,"name":"Etherwow","description":"A decentralized game about probability, people cho","fullDescription":"A decentralized game about probability, people choose a bet amount and guess a number between 1 and 99, then the system will generate a random number from 0-100, if the guessing number is smaller than the generated number, people win the rewarded ETH shown at bottom.\n\nMoreover, the random number is generated totally randomly, but due to the blockchain working condition, the random number generating duration may vary from seconds to minutes.","logo":null,"link":"https://dappradar.com/dapp/etherwow","website":"http://etherwow.io/","chains":["ethereum"],"categories":["gambling"],"socialLinks":[],"tags":[]},{"dappId":425,"name":"Craig Grant Now","description":null,"fullDescription":null,"logo":null,"link":"https://dappradar.com/dapp/craig-grant-now","website":"http://cgnow.fun/","chains":["ethereum"],"categories":["other"],"socialLinks":[],"tags":[]},{"dappId":426,"name":"PixoArena: CROWDSALE","description":"PixoArena is a Fighting Collectible game powered b","fullDescription":"PixoArena is a Fighting Collectible game powered by Ethereum Blockchain\n- Recruit powerful Pixos\n- Equip them with awesome Artifacts\n- Fight in the Arena and climb the ranks\n- Win prizes paid in Crypto\n- Trade Pixos and Artifacts in the Marketplace","logo":null,"link":"https://dappradar.com/dapp/pixoarena-crowdsale","website":"https://pixoarena.com/","chains":["ethereum"],"categories":["games"],"socialLinks":[{"title":"Official Twitter","url":"https://twitter.com/Pixoarena","type":"twitter"}],"tags":[]},{"dappId":427,"name":"Proof of Carlos Matos","description":null,"fullDescription":null,"logo":null,"link":"https://dappradar.com/dapp/proof-of-carlos-matos","website":"http://pocm.surge.sh/","chains":["ethereum"],"categories":["high-risk"],"socialLinks":[],"tags":[]},{"dappId":428,"name":"AlchemyGod","description":"A supply chain simulation game. Players could try ","fullDescription":"A supply chain simulation game. Players could try to alchemy out many different elements like bird, gold or robot. Could  be one of the coolest crypto games in this world.","logo":null,"link":"https://dappradar.com/dapp/alchemygod","website":"https://www.alchemygod.top/","chains":["ethereum"],"categories":["games"],"socialLinks":[{"title":"Official Discord","url":"https://discord.gg/ynbAMJr","type":"discord"},{"title":"Official Youtube","url":"https://youtu.be/PGTCKC8JAjQ","type":"youtube"}],"tags":[]},{"dappId":429,"name":"Panda Earth","description":"Panda.Earth is a social simulation APP built on bl","fullDescription":"Panda.Earth is a social simulation APP built on blockchain.\nKey features:\n1. Only authorized partner of China Conservation and Research Center for Giant Panda on block chain. Panda.Earth will make every real, rare, and adorable panda a digital copy and store them on blockchain. These cryptopandas are in real mapping, uniqueness, rareness and popularity. \n2. Based on cryptopanda, we extend the Crypto-Collectibles trading. That is to say, cryptopandas can exchange to other crypto-collectibles in Panda.Earth.\n3.  We also extend digital currency transactions based on crypto-collectibles. Example, you can purchase cryptopandas through token A, but choose token B to sell it.","logo":null,"link":"https://dappradar.com/dapp/panda-earth","website":"https://panda.earth/","chains":["ethereum"],"categories":["collectibles"],"socialLinks":[{"title":"Official Telegram","url":"https://t.me/pandaearth","type":"telegram"},{"title":"Official Twitter","url":"https://twitter.com/Panda__Earth","type":"twitter"}],"tags":[]},{"dappId":430,"name":"dice2.win","description":"Provably fair dice with low 1% house edge, fast tu","fullDescription":"<p>Provably fair dice with low 1% house edge, fast turnaround, no sign ups &amp; deposits and best in class RNG for high stakes. Jackpot, too!</p>\r\n","logo":"https://dashboard-assets.dappradar.com/geRRcWz9IdTwSrm1/document/430/dice2win-dapp-gambling-eth-logo_c2c73aa2b11a579290f5902c3f06c667.png","link":"https://dappradar.com/dapp/dice2-win","website":"https://dice2.win?r=dapprd","chains":["ethereum"],"categories":["gambling"],"socialLinks":[{"title":"Official Twitter","url":"https://twitter.com/dice2win","type":"twitter"}],"tags":[]},{"dappId":431,"name":"WarFlame: Presale","description":"WarFlame is a game about cryptographically unique ","fullDescription":"WarFlame is a game about cryptographically unique collectible units on the Ethereum blockchain. Collect, battle and trade your units!","logo":null,"link":"https://dappradar.com/dapp/warflame-presale","website":"https://warflame.org/","chains":["ethereum"],"categories":["games"],"socialLinks":[{"title":"Official Discord","url":"https://discord.gg/BaCEcE2","type":"discord"},{"title":"Official Twitter","url":"https://twitter.com/warflamegame","type":"twitter"}],"tags":[]},{"dappId":432,"name":"Handshake","description":"Handshake is an app that transcribes commitment in","fullDescription":"Handshake is an app that transcribes commitment into code, and immortalizes promises on the blockchain. This creates an eternal, unchangeable record of intent - without fear of forgery or fraud.","logo":null,"link":"https://dappradar.com/dapp/handshake","website":"https://www.autonomous.ai/handshake-digital-signature","chains":["ethereum"],"categories":["other"],"socialLinks":[{"title":"Download Android","url":"https://play.google.com/store/apps/details?id=com.mobile_handshake ","type":"other"},{"title":"Download iOS","url":"https://itunes.apple.com/us/app/handshake-sign-here/id1360132818?mt=8 ","type":"other"},{"title":"Marketplace","url":"https://www.autonomous.ai/marketplace","type":"other"},{"title":"Official Medium","url":"https://medium.com/@autonomousdotai/","type":"medium"},{"title":"Official Telegram","url":"https://t.me/handshakeontheblockchain ","type":"telegram"},{"title":"ProductHunt Information","url":"https://www.producthunt.com/posts/handshake-2 ","type":"other"}],"tags":[]},{"dappId":433,"name":"FunFace by Craig Grant","description":"Fun Face Pyramid with 25% dividends ","fullDescription":"Fun Face Pyramid with 25% dividends ","logo":null,"link":"https://dappradar.com/dapp/funface-by-craig-grant","website":"http://www.funface.site","chains":["ethereum"],"categories":["other"],"socialLinks":[],"tags":[]},{"dappId":434,"name":"CryptoArtworks","description":"CryptoArtworks is that very art people have adored","fullDescription":"CryptoArtworks is that very art people have adored for ages, but with the cryptospirit. It’s a kind of game – the same game which is played by thousands and thousand collectors in the world collecting artworks from different ages and places. CryptoArtworks is the unique way to become an exclusive owner of a masterpiece which is obviously one-of-a-kind and 100% owned by you. No one can replicate it, take it away, or destroy.","logo":null,"link":"https://dappradar.com/dapp/cryptoartworks","website":"https://cryptoartworks.io/","chains":["ethereum"],"categories":["other"],"socialLinks":[],"tags":[]},{"dappId":435,"name":"Factbar","description":"Factbar is a markets-based system for ranking and ","fullDescription":"Factbar is a markets-based system for ranking and organizing facts about our world. It allows for the generation and claiming of \"Factbars,\" which are unique digital collectibles and instruments designed to bring contested facts into public view, where they can be fact-checked by a formal process of issues, comments, and revisions.","logo":null,"link":"https://dappradar.com/dapp/factbar","website":"https://fact-bar.org","chains":["ethereum"],"categories":["other"],"socialLinks":[],"tags":[]},{"dappId":436,"name":"BitVideo.One","description":"Buy V+, earn BTVC and cashout ETH. Turn hot youtub","fullDescription":"Buy V+, earn BTVC and cashout ETH. Turn hot youtube videos into miners, earn BTVC when viewcount increase, and cashout BTVC from ETH pool. Start mining now!","logo":null,"link":"https://dappradar.com/dapp/bitvideo-one","website":"http://www.bitvideo.one/","chains":["ethereum"],"categories":["other"],"socialLinks":[],"tags":[]},{"dappId":437,"name":"EtherFactory.BIZ","description":"Business strategy game [ ERC20 compatible ]","fullDescription":"Business strategy game [ ERC20 compatible ]","logo":null,"link":"https://dappradar.com/dapp/etherfactory-biz","website":"https://etherfactory.biz/?10&","chains":["ethereum"],"categories":["games"],"socialLinks":[{"title":"Official Discord","url":"https://discord.gg/CHsmzUt","type":"discord"}],"tags":[]},{"dappId":438,"name":"Lovers 4 Life","description":"Proclaim your love on the blockchain! ","fullDescription":"Proclaim your love on the blockchain! ","logo":null,"link":"https://dappradar.com/dapp/lovers-4-life","website":"http://www.lovers4.life/","chains":["ethereum"],"categories":["other"],"socialLinks":[],"tags":[]},{"dappId":439,"name":"CryptoCrystal","description":"World's 1st sentient Mineral.\r\nCryptoCrystal are s","fullDescription":"World's 1st sentient Mineral.\r\nCryptoCrystal are sentient Shiny Crystals that have personalities similar to human while being overly cute like pet animals. ","logo":null,"link":"https://dappradar.com/dapp/cryptocrystal","website":"https://cryptocrystal.io/","chains":["ethereum"],"categories":["games"],"socialLinks":[{"title":"Official Medium","url":"https://medium.com/@cryptocrystal","type":"medium"}],"tags":[]},{"dappId":440,"name":"DoubleRPS","description":"You can earn ETH If you know how to play rock-pape","fullDescription":"You can earn ETH If you know how to play rock-paper-scissors game! \r\n","logo":null,"link":"https://dappradar.com/dapp/doublerps","website":"http://doublerps.com","chains":["ethereum"],"categories":["games"],"socialLinks":[],"tags":[]},{"dappId":441,"name":"Numerai","description":"A new kind of hedge fund built by a network of data scientists.","fullDescription":"<p>The smart contract powering Numerai. Submit predictions and stake the NMR token on your predictions.</p>","logo":"https://dashboard-assets.dappradar.com/geRRcWz9IdTwSrm1/document/441/numerai-dapp-other-ethereum-logo_c40e8948e95c9b1e3542d159d9499c00.png","link":"https://dappradar.com/dapp/numerai","website":"https://numer.ai","chains":["ethereum"],"categories":["other"],"socialLinks":[{"title":"other","url":"https://vimeo.com/205032211","type":"other"},{"title":"twitter","url":"https://twitter.com/numerai","type":"twitter"}],"tags":[]},{"dappId":442,"name":"PennyEther","description":"An Ethereum casino with several games to choose fr","fullDescription":"An Ethereum casino with several games to choose from","logo":null,"link":"https://dappradar.com/dapp/pennyether","website":"https://www.pennyether.com","chains":["ethereum"],"categories":["gambling"],"socialLinks":[{"title":"Official Discord","url":"https://discord.gg/hrrERYZ","type":"discord"},{"title":"Official Reddit","url":"https://www.reddit.com/r/PennyEther","type":"reddit"}],"tags":[]},{"dappId":443,"name":"EtherX ","description":"An Ether Exchange Pyramid for the Community","fullDescription":"An Ether Exchange Pyramid for the Community","logo":null,"link":"https://dappradar.com/dapp/etherx","website":"https://www.etherx.site","chains":["ethereum"],"categories":["other"],"socialLinks":[{"title":"Official Discord","url":"https://discord.gg/JB52qUd","type":"discord"}],"tags":[]},{"dappId":444,"name":"ETHERC","description":"It’s the world’s first Decentralized Exchange that","fullDescription":"It’s the world’s first Decentralized Exchange that established a solution for Gas-Free trading.","logo":null,"link":"https://dappradar.com/dapp/etherc","website":"https://etherc.io","chains":["ethereum"],"categories":["exchanges"],"socialLinks":[],"tags":[]},{"dappId":445,"name":"ETHERICH","description":"A silly little app to show off your wealth.","fullDescription":"A silly little app to show off your wealth.","logo":null,"link":"https://dappradar.com/dapp/etherich-2","website":"https://etherich.sillysmartcontracts.xyz/","chains":["ethereum"],"categories":["other"],"socialLinks":[],"tags":[]},{"dappId":446,"name":"UnicornGO","description":"UnicornGO is the most beautiful and smart cryptoco","fullDescription":"UnicornGO is the most beautiful and smart cryptocollection economical strategy on blockchain. After an oecumenical cataclysm occurred and the human civilization died, our planet is populated by unicorns which are result of genetic and quantum experiments of a mad scientist.","logo":null,"link":"https://dappradar.com/dapp/unicorngo","website":"https://unicorngo.io","chains":["ethereum"],"categories":["games"],"socialLinks":[{"title":"BitcoinTalk","url":"https://bitcointalk.org/index.php?topic=2895415.msg29768677#msg29768677   ","type":"other"},{"title":"Official Facebook","url":"https://www.facebook.com/unicorngo2018","type":"facebook"},{"title":"Official Golos","url":"https://golos.io/@unicorngo","type":"other"},{"title":"Official Instagram","url":"https://www.instagram.com/go_unicorn_go/ ","type":"instagram"},{"title":"Official Medium","url":"https://medium.com/@agentsmith_30065","type":"medium"},{"title":"Official Steemit","url":"https://steemit.com/@unicorngo/  ","type":"other"},{"title":"Official Telegram","url":"https://t.me/unicorn_go","type":"telegram"},{"title":"Official Twitter","url":"https://twitter.com/UnicornGo_2018","type":"twitter"},{"title":"Official YouTube","url":"https://www.youtube.com/channel/UCy9fbYdZ4t2bAbQ0HrFN2kA  ","type":"youtube"}],"tags":[]},{"dappId":447,"name":"MyCryptoChamp","description":"Game about upgrading your champs by fighting, gett","fullDescription":"Game about upgrading your champs by fighting, getting better items and trading them. The best 800 champs are daily rewarded by Ether.","logo":null,"link":"https://dappradar.com/dapp/mycryptochamp","website":"https://mycryptochamp.io","chains":["ethereum"],"categories":["games"],"socialLinks":[{"title":"Official Instagram","url":"https://www.instagram.com/mycryptochamp/","type":"instagram"},{"title":"Official Twitter","url":"https://twitter.com/mycryptochamp","type":"twitter"}],"tags":[]},{"dappId":448,"name":"How Many People Paid 0.0015 ETH","description":"How many people paid 0.0015 ETH, to see how many p","fullDescription":"How many people paid 0.0015 ETH, to see how many people paid 0.0015 ETH.  This DApp is based on the 1$ variant. ","logo":null,"link":"https://dappradar.com/dapp/how-many-people-paid-0-0015-eth","website":"https://howmanypeople.sillysmartcontracts.xyz/","chains":["ethereum"],"categories":["other"],"socialLinks":[{"title":"Official Twitter","url":"https://twitter.com/sillysmartcon","type":"twitter"}],"tags":[]},{"dappId":449,"name":"Ether Shrimp Farm","description":"Farm shrimp on the blockchain and sell them for Et","fullDescription":"Farm shrimp on the blockchain and sell them for Eth!","logo":null,"link":"https://dappradar.com/dapp/ether-shrimp-farm","website":"http://ethershrimpfarm.net/","chains":["ethereum"],"categories":["high-risk"],"socialLinks":[],"tags":[]},{"dappId":450,"name":"Heroes Of Ethereum","description":"Welcome to Heroes of Ethereum, a decentralized fan","fullDescription":"Welcome to Heroes of Ethereum, a decentralized fantasy RPG based on smart contracts.\r\n\r\nA funny and breathtaking adventure with knights, shamans, and chieftains, untold wealth is waiting for you in a world full of wonders and dungeons full of enemies!\r\n\r\nLevel up your heroes, find the best armors and weapons, fight in the Arena against other players and enemy hordes. And, of course, find treasure in the dungeons.","logo":null,"link":"https://dappradar.com/dapp/heroes-of-ethereum","website":"https://etheroes.co/","chains":["ethereum"],"categories":["games"],"socialLinks":[{"title":"Official Facebook","url":"https://www.facebook.com/Heroes-of-Ethereum-181285889182214","type":"facebook"},{"title":"Official Twitter","url":"https://twitter.com/HeroesOfEther","type":"twitter"}],"tags":[]},{"dappId":453,"name":"Pepe Farm","description":"A idle game that let's you hire Pepe Farmers to fa","fullDescription":"A idle game that let's you hire Pepe Farmers to farm dank memes which you can use to hire more Pepe Farmers or sell for ETH. Similar to Shrimp Farm!","logo":null,"link":"https://dappradar.com/dapp/pepe-farm-3","website":"http://www.pepefarm.club/","chains":["ethereum"],"categories":["high-risk"],"socialLinks":[],"tags":[]},{"dappId":454,"name":"Fish Farm","description":null,"fullDescription":null,"logo":null,"link":"https://dappradar.com/dapp/fish-farm","website":"http://fishfarm.surge.sh/","chains":["ethereum"],"categories":["high-risk"],"socialLinks":[],"tags":[]},{"dappId":455,"name":"0xCATE","description":"CatEther is one of the first Proof-of-Work & ERC20","fullDescription":"CatEther is one of the first Proof-of-Work & ERC20-compliant token of the Ethereum Platform. It has dynamic difficulty re-target, high coin supply, and has implemented \"Proof-of-Use\", who would help in reducing the overall transaction fees.","logo":null,"link":"https://dappradar.com/dapp/0xcate","website":"https://www.catether.org","chains":["ethereum"],"categories":["other"],"socialLinks":[{"title":"Official BitcoinTalk","url":"https://bitcointalk.org/index.php?topic=3539559.0","type":"other"},{"title":"Official Discord","url":"https://discord.gg/XBRaEcW","type":"discord"},{"title":"Pool","url":"https://pool.catether.org","type":"other"}],"tags":[]},{"dappId":456,"name":"Eth Grid","description":" ","fullDescription":" ","logo":null,"link":"https://dappradar.com/dapp/eth-grid","website":"https://ethgrid.io/","chains":["ethereum"],"categories":["other"],"socialLinks":[],"tags":[]},{"dappId":457,"name":"Proof of Purchases Providing Yields","description":"Poppy Token grants it's holders ETH dividends by c","fullDescription":"Poppy Token grants it's holders ETH dividends by collecting a 1% tax on transactions, reinvest your dividends for more tokens or withdraw your ethereum directly. ","logo":null,"link":"https://dappradar.com/dapp/proof-of-purchases-providing-yields","website":"https://www.poppytoken.com/","chains":["ethereum"],"categories":["high-risk"],"socialLinks":[],"tags":[]},{"dappId":458,"name":"Giftomon","description":" ","fullDescription":" ","logo":null,"link":"https://dappradar.com/dapp/giftomon","website":"https://giftomon.io/","chains":["ethereum"],"categories":["games"],"socialLinks":[],"tags":[]},{"dappId":459,"name":"Mythereum","description":"Mythereum is a digital trading card game built on ","fullDescription":"Mythereum is a digital trading card game built on the Ethereum blockchain.","logo":null,"link":"https://dappradar.com/dapp/mythereum","website":"https://www.mythereum.io","chains":["ethereum"],"categories":["games"],"socialLinks":[{"title":"Official Discord","url":"https://discord.gg/xvVMrtm","type":"discord"},{"title":"Official Medium","url":"https://medium.com/mythereum","type":"medium"},{"title":"Official Twitter","url":"https://twitter.com/mythereum","type":"twitter"}],"tags":[]},{"dappId":460,"name":"Ethen","description":" ","fullDescription":" ","logo":null,"link":"https://dappradar.com/dapp/ethen","website":"https://ethen.market/","chains":["ethereum"],"categories":["exchanges"],"socialLinks":[{"title":"Official Facebook","url":"https://www.facebook.com/ethenmarket","type":"facebook"},{"title":"Official Reddit","url":"https://www.reddit.com/r/EthenMarket","type":"reddit"},{"title":"Official Twitter","url":"https://twitter.com/Ethenmarket","type":"twitter"}],"tags":[]},{"dappId":461,"name":"graffethi","description":"Voice your message and store it on the blockchain ","fullDescription":"Voice your message and store it on the blockchain forever! The higher the value, the higher the rank. Compose your piece of wisdom to share with the world - also you can color a little box next to it! \r\nOh, you can't come up with anything yourself? No worries; Go boost an attention-needing message and make it climb that list!","logo":null,"link":"https://dappradar.com/dapp/graffethi","website":"http://graffethi.com/","chains":["ethereum"],"categories":["other"],"socialLinks":[],"tags":[]},{"dappId":462,"name":"Halo 3D","description":null,"fullDescription":null,"logo":null,"link":"https://dappradar.com/dapp/halo-3d","website":"https://h3d.pw/","chains":["ethereum"],"categories":["other"],"socialLinks":[],"tags":[]},{"dappId":463,"name":"Cash Cow","description":"CashCowDapp is a decentralized investing game","fullDescription":"CashCowDapp is a decentralized investing game","logo":null,"link":"https://dappradar.com/dapp/cash-cow","website":"http://www.cashcowdapp.com/","chains":["ethereum"],"categories":["games"],"socialLinks":[],"tags":[]},{"dappId":464,"name":"Ether Trump Farm","description":" ","fullDescription":" ","logo":null,"link":"https://dappradar.com/dapp/ether-trump-farm","website":"http://ethertrumpfarm.surge.sh","chains":["ethereum"],"categories":["high-risk"],"socialLinks":[],"tags":[]},{"dappId":465,"name":"CryptoFootball","description":"The world's first football simulation game on the ","fullDescription":"The world's first football simulation game on the blockchain","logo":null,"link":"https://dappradar.com/dapp/cryptofootball","website":"http://www.cryptofootball.top/","chains":["ethereum"],"categories":["games"],"socialLinks":[],"tags":[]},{"dappId":466,"name":"Ether Chicken Farm","description":" ","fullDescription":" ","logo":null,"link":"https://dappradar.com/dapp/ether-chicken-farm","website":"https://chickenfarm.surge.sh?ref=0x86060b7959451f44ea1a15bd2b2da22f28e6f3ce&","chains":["ethereum"],"categories":["high-risk"],"socialLinks":[],"tags":[]},{"dappId":468,"name":"Ether Crocs Farm","description":" ","fullDescription":" ","logo":null,"link":"https://dappradar.com/dapp/ether-crocs-farm","website":"https://ethercrocsfarm.site?ref=0x86060b7959451f44ea1a15bd2b2da22f28e6f3ce&","chains":["ethereum"],"categories":["high-risk"],"socialLinks":[],"tags":[]},{"dappId":469,"name":"Ethereum Chicken Farm","description":" ","fullDescription":" ","logo":null,"link":"https://dappradar.com/dapp/ethereum-chicken-farm","website":"https://etherchicken.com/?ref=0x86060b7959451f44ea1a15bd2b2da22f28e6f3ce&","chains":["ethereum"],"categories":["high-risk"],"socialLinks":[],"tags":[]},{"dappId":470,"name":"GoT Dragon Farm","description":" ","fullDescription":" ","logo":null,"link":"https://dappradar.com/dapp/got-dragon-farm","website":"https://dragonfarm.space?ref=0x86060b7959451f44ea1a15bd2b2da22f28e6f3ce&","chains":["ethereum"],"categories":["high-risk"],"socialLinks":[],"tags":[]},{"dappId":471,"name":"PepeDapp","description":" ","fullDescription":" ","logo":null,"link":"https://dappradar.com/dapp/pepedapp","website":"http://www.pepedapp.com/","chains":["ethereum"],"categories":["collectibles"],"socialLinks":[{"title":"Official Telegram","url":"https://t.me/pepedapp","type":"telegram"},{"title":"Official Twitter","url":"https://twitter.com/pepedapp","type":"twitter"}],"tags":[]}],"page":8,"pageCount":91,"resultCount":4541,"resultsPerPage":50}