{"success":true,"results":[{"dappId":251,"name":"Last Flip Wins & Low Risk Bag","description":"The First Flipping Game where the last owner wins","fullDescription":"The First Flipping Game where the last owner wins","logo":null,"link":"https://dappradar.com/dapp/last-flip-wins-low-risk-bag","website":"http://www.lastflipwins.co/","chains":["ethereum"],"categories":["games"],"socialLinks":[{"title":"Official Medium","url":"https://medium.com/@hypegames404","type":"medium"}],"tags":[]},{"dappId":252,"name":"Ethero","description":"Ethero is an  game based on Ethereum. The backgrou","fullDescription":"Ethero is an  game based on Ethereum. The background of the game is set in a heroic world in which players can hire or trade their own heroes. It also allows two heroes to work together to teach one apprentice(a whole new hero). Now we are testing it's PVP Battle and many other features are coming soon to make more fun.","logo":null,"link":"https://dappradar.com/dapp/ethero","website":"http://ethero.one/","chains":["ethereum"],"categories":["games"],"socialLinks":[{"title":"Official Discord","url":"https://discord.gg/DwycqPt","type":"discord"}],"tags":[]},{"dappId":254,"name":"token.store ETH","description":"Operating since 2017, token.store ETH is one of","fullDescription":"<p>Operating since 2017, token.store ETH is one of the oldest, fully trustless decentralized exchanges on the Ethereum network. All funds are held on an open smart contract (and not by the exchange), thereby eliminating many security risks faced by centralized and semi-decentralized exchanges. token.store ETH has on-chain settlement and on-chain order-matching. Any token can be traded on token.store even without a listing, through the Address Trading feature. token.store also operates a trustless exchange on the EOS network.</p>\r\n","logo":"https://dashboard-assets.dappradar.com/geRRcWz9IdTwSrm1/document/254/tokenstoreeth-dapp-exchanges-eth-logo_2120957344e92c945c30dc1f64968e6d.png","link":"https://dappradar.com/dapp/token-store-eth","website":"https://token.store/","chains":["ethereum"],"categories":["exchanges"],"socialLinks":[{"title":"Official Medium","url":"https://medium.com/token-store","type":"medium"},{"title":"Official Telegram","url":"https://t.me/thetokenstore","type":"telegram"},{"title":"Official Twitter","url":"https://twitter.com/tokendotstore","type":"twitter"}],"tags":[]},{"dappId":257,"name":"0x Protocol","description":"0x is an open protocol that enables the peer-to-peer exchange of assets on the Ethereum blockchain.","fullDescription":"<p>0x is an open protocol that enables the peer-to-peer exchange of assets on the Ethereum blockchain.</p>","logo":"https://dashboard-assets.dappradar.com/geRRcWz9IdTwSrm1/document/257/0xprotocol-dapp-other-eth-logo_7e869e1e5fbe2b41499661ea503195bd.png","link":"https://dappradar.com/dapp/0x-protocol","website":"https://www.0x.org/","chains":["arbitrum","avalanche","bnb-chain","celo","ethereum","fantom","optimism","polygon"],"categories":["exchanges"],"socialLinks":[{"title":"twitter","url":"https://twitter.com/0xProject","type":"twitter"}],"tags":[{"id":"10","name":"Layer 2","slug":"layer-2"},{"id":"11","name":"Content Creation","slug":"content-creation"},{"id":"12","name":"Art","slug":"art"},{"id":"13","name":"Pools","slug":"pools"},{"id":"14","name":"Gambling","slug":"gambling"},{"id":"15","name":"Knowledge","slug":"knowledge"},{"id":"16","name":"Farming","slug":"farming"},{"id":"18","name":"Discussions","slug":"discussions"},{"id":"19","name":"Photos","slug":"photos"},{"id":"1","name":"NFT","slug":"nft"},{"id":"20","name":"Videos","slug":"videos"},{"id":"21","name":"Move to Earn","slug":"move-to-earn"},{"id":"22","name":"Metaverse","slug":"metaverse"},{"id":"23","name":"Sports","slug":"sports"},{"id":"24","name":"Social","slug":"social"},{"id":"2","name":"Exchanges","slug":"exchanges"},{"id":"3","name":"Staking","slug":"staking"},{"id":"4","name":"Yield","slug":"yield"},{"id":"5","name":"DeFi","slug":"defi"},{"id":"6","name":"Games","slug":"games"},{"id":"7","name":"Play to Earn","slug":"play-to-earn"},{"id":"8","name":"Marketplaces","slug":"marketplaces"},{"id":"9","name":"Governance","slug":"governance"}]},{"dappId":258,"name":"Circleramide","description":"Spend ether to buy a block. Each row of blocks cos","fullDescription":"Spend ether to buy a block. Each row of blocks costs more than the previous one by 25%. 98% ETH from the block goes to both blocks on the bottom 2% ETH from the block goes to fund of rewards and creators. Each 100th block receives a reward! Block #5000 will break JACKPOT and finish the game!","logo":null,"link":"https://dappradar.com/dapp/circleramide","website":"https://godstep.ru/","chains":["ethereum"],"categories":["games"],"socialLinks":[],"tags":[]},{"dappId":260,"name":"CryptoBallers","description":"Own your own Basketball team on the Ethereum Block","fullDescription":"Own your own Basketball team on the Ethereum Blockchain","logo":null,"link":"https://dappradar.com/dapp/cryptoballers","website":"http://www.cryptoballers.me/","chains":["ethereum"],"categories":["games"],"socialLinks":[{"title":"Official Discord","url":"https://discordapp.com/invite/ffFtbEj","type":"discord"},{"title":"Official Medium","url":"https://medium.com/@cryptoballersme","type":"medium"},{"title":"Official Reddit","url":"https://www.reddit.com/r/CryptoBallersGame/","type":"reddit"},{"title":"Official Twitter","url":"https://twitter.com/Crypto__Ballers","type":"twitter"}],"tags":[]},{"dappId":261,"name":"Ethmoji Beta","description":"Collect and create your own unique avatars","fullDescription":"Collect and create your own unique avatars","logo":null,"link":"https://dappradar.com/dapp/ethmoji-beta","website":"https://ethmoji.io","chains":["ethereum"],"categories":["games"],"socialLinks":[],"tags":[]},{"dappId":262,"name":"BlockChina","description":"Unify China on the Blockchain!","fullDescription":"Unify China on the Blockchain!","logo":null,"link":"https://dappradar.com/dapp/blockchina","website":"https://www.blockchina.io/","chains":["ethereum"],"categories":["games"],"socialLinks":[{"title":"Official Telegram","url":"https://t.me/DAppsGirl","type":"telegram"},{"title":"Official Twitter","url":"https://twitter.com/Block_China","type":"twitter"}],"tags":[]},{"dappId":263,"name":"EthJackpot","description":"Lottery-like game with human interface. Smart cont","fullDescription":"Lottery-like game with human interface. Smart contract introduce several playing rooms with different ticket price, ticket amount and jackpot respectively. Contract introduce one level referral system and future dividends from contract's fees. Contract have refund system for rooms with some lock time to avoid lock of funds in smart contract. Our game doesn't use any third-party contract to generate random winner.","logo":null,"link":"https://dappradar.com/dapp/ethjackpot","website":"https://ethjackpot.github.io/","chains":["ethereum"],"categories":["gambling"],"socialLinks":[{"title":"Official Telegram","url":"https://t.me/ethjackpot","type":"telegram"}],"tags":[]},{"dappId":264,"name":"Ethereum Name Service","description":"Your web3 username, one name for all your crypto addresses, and decentralised websites.","fullDescription":"<p>The Ethereum Name Service (ENS) is a distributed, open, and extensible naming system based on the Ethereum blockchain.</p>\n<p>ENS’s job is to map human-readable names like ‘alice.eth’ to machine-readable identifiers such as Ethereum addresses, other cryptocurrency addresses, content hashes, and metadata. ENS also supports ‘reverse resolution’, making it possible to associate metadata such as canonical names or interface descriptions with Ethereum addresses.</p>\n<p>ENS has similar goals to DNS, the Internet’s Domain Name Service, but has significantly different architecture due to the capabilities and constraints provided by the Ethereum blockchain. Like DNS, ENS operates on a system of dot-separated hierarchical names called domains, with the owner of a domain having full control over subdomains.</p>\n<p>Top-level domains, like ‘.eth’ and ‘.test’, are owned by smart contracts called registrars, which specify rules governing the allocation of their subdomains. Anyone may, by following the rules imposed by these registrar contracts, obtain ownership of a domain for their own use. ENS also supports importing in DNS names already owned by the user for use on ENS.</p>","logo":"https://dashboard-assets.dappradar.com/geRRcWz9IdTwSrm1/document/264/ethereumnameservice-dapp-other-ethereum-logo_bf1d6e7f0f18ac73fd3273e463b5403a.png","link":"https://dappradar.com/dapp/ethereum-name-service","website":"https://ens.domains/","chains":["ethereum"],"categories":["other"],"socialLinks":[{"title":"github","url":"https://github.com/ensdomains","type":"github"},{"title":"medium","url":"https://medium.com/the-ethereum-name-service","type":"medium"},{"title":"twitter","url":"https://twitter.com/ensdomains","type":"twitter"}],"tags":[]},{"dappId":265,"name":"Jockey Club","description":"sell and buy Crypto Jockeys","fullDescription":"sell and buy Crypto Jockeys","logo":null,"link":"https://dappradar.com/dapp/jockey-club-3","website":"https://www.cryptohorse.ch/jockeyClub.html","chains":["ethereum"],"categories":["games"],"socialLinks":[{"title":"Official Discord","url":"https://discord.gg/4ghEapG","type":"discord"},{"title":"Official Facebook","url":"https://www.facebook.com/TheCryptoHorse/","type":"facebook"},{"title":"Official Twitter","url":"https://twitter.com/likeCryptohorse?lang=en","type":"twitter"}],"tags":[]},{"dappId":267,"name":"TrumpBingo","description":"Guess the words from the next Trump's tweet and wi","fullDescription":"Guess the words from the next Trump's tweet and win bids of the other players","logo":null,"link":"https://dappradar.com/dapp/trumpbingo","website":"https://trumpbingo.io/","chains":["ethereum"],"categories":["games"],"socialLinks":[{"title":"Official Facebook","url":"https://www.facebook.com/TrumpBingoGame","type":"facebook"},{"title":"Official Twitter","url":"https://twitter.com/BingoTrump","type":"twitter"}],"tags":[]},{"dappId":268,"name":"ETHCapsule","description":"A new way to hodl onto Ether and ERC20 tokens","fullDescription":"A new way to hodl onto Ether and ERC20 tokens","logo":null,"link":"https://dappradar.com/dapp/ethcapsule","website":"https://www.ethcapsule.com/","chains":["ethereum"],"categories":["other"],"socialLinks":[{"title":"Official Facebook","url":"https://www.facebook.com/ETHCapsule/","type":"facebook"},{"title":"Official Twitter","url":"https://twitter.com/ETHCapsule","type":"twitter"}],"tags":[]},{"dappId":270,"name":"YTIcons","description":"Buy, collect and sell your favorite YouTuber evolu","fullDescription":"Buy, collect and sell your favorite YouTuber evolutive and unique cards !","logo":null,"link":"https://dappradar.com/dapp/yticons","website":"https://yticons.co/home","chains":["ethereum"],"categories":["games"],"socialLinks":[{"title":"Official Discord","url":"https://discord.gg/zFEwyan","type":"discord"},{"title":"Official Facebook","url":"https://www.facebook.com/YTIcons-155634891802441","type":"facebook"},{"title":"Official Twitter","url":"https://twitter.com/YT_Icons","type":"twitter"}],"tags":[]},{"dappId":271,"name":"BitSoccer","description":"Decentralized Soccer Simulation Game","fullDescription":"Decentralized Soccer Simulation Game","logo":null,"link":"https://dappradar.com/dapp/bitsoccer","website":"http://www.bitsoccer.io/","chains":["ethereum"],"categories":["games"],"socialLinks":[{"title":"Official Discord","url":"https://discord.gg/aHZUrgS","type":"discord"},{"title":"Official Facebook","url":"https://www.facebook.com/BitSoccer/","type":"facebook"},{"title":"Official Medium","url":"https://medium.com/@bitsoccer","type":"medium"},{"title":"Official Telegram","url":"https://t.me/joinchat/Ef7oJUlkdGguo9aDIMDTbw","type":"telegram"},{"title":"Official Twitter","url":"https://twitter.com/bit_soccer","type":"twitter"}],"tags":[]},{"dappId":272,"name":"Luckyone casino","description":"LuckyOne is an Ethereum smart contract for placing","fullDescription":"LuckyOne is an Ethereum smart contract for placing bets on our provably-fair dice game using Ether with no deposits or sign-ups.\nEach dice roll is provably random and cryptographically secure thanks to the nature of the Ethereum blockchain.","logo":null,"link":"https://dappradar.com/dapp/luckyone-casino","website":"http://luckyone.io/","chains":["ethereum"],"categories":["gambling"],"socialLinks":[],"tags":[]},{"dappId":273,"name":"CryptoPuppies","description":"Collect and trade CryptoPuppies in one of the worl","fullDescription":"Collect and trade CryptoPuppies in one of the world's blockchain games. Breed your rarest puppies to create A Man's best friend. The future is woof!","logo":null,"link":"https://dappradar.com/dapp/cryptopuppies","website":"https://cryptopuppies.org/","chains":["ethereum"],"categories":["games"],"socialLinks":[],"tags":[]},{"dappId":275,"name":"CryptoElements","description":"Crypto Elements is a platform for collecting 100% ","fullDescription":"Crypto Elements is a platform for collecting 100% unique and one of a kind digital chemical elements. Each of them is represented by only one ERC 721 token. It can not be destroyed or replicated, it is insured by logic behind Smart Contract deployed on Ethereum Blockchain.","logo":null,"link":"https://dappradar.com/dapp/cryptoelements","website":"https://cryptoelements.org/","chains":["ethereum"],"categories":["games"],"socialLinks":[{"title":"Official Discord","url":"https://discord.gg/FqK9sR2","type":"discord"},{"title":"Official Facebook","url":"https://www.facebook.com/CryptoElements/","type":"facebook"},{"title":"Official Twitter","url":"https://twitter.com/CryptoElements","type":"twitter"}],"tags":[]},{"dappId":276,"name":"Melonport","description":"Melon is the first of its kind autonomous systems,","fullDescription":"Melon is the first of its kind autonomous systems, designed specifically for the purposes of crypto asset management. Both its frontend as well as its backend are hosted and executed on decentralised platforms. The frontend operates on top of IPFS, while the backend leverages off a set of Ethereum smart contracts.","logo":null,"link":"https://dappradar.com/dapp/melonport","website":"https://melonport.com/","chains":["ethereum"],"categories":["other"],"socialLinks":[],"tags":[]},{"dappId":278,"name":"Ether Goo - Idle Game","description":"First Crypto Idle Game - Competitive Fun!","fullDescription":"First Crypto Idle Game - Competitive Fun!","logo":null,"link":"https://dappradar.com/dapp/ether-goo-idle-game","website":"https://ethergoo.io/freekitty/0xffd4c92f7ab9075e0faada86dfa22784bb4fe56c","chains":["ethereum"],"categories":["games"],"socialLinks":[{"title":"Official Twitter","url":"https://twitter.com/EthGoo","type":"twitter"}],"tags":[]},{"dappId":279,"name":"CryptoFamous","description":"Mint a CryptoCollectible from your Twitter / Insta","fullDescription":"Mint a CryptoCollectible from your Twitter / Instagram / YouTube.","logo":null,"link":"https://dappradar.com/dapp/cryptofamous","website":"https://cryptofamous.net/","chains":["ethereum"],"categories":["games"],"socialLinks":[{"title":"Official Discord","url":"https://discordapp.com/invite/rpy6upg","type":"discord"},{"title":"Official Telegram","url":"https://t.me/cryptofamousofficial","type":"telegram"},{"title":"Official Twitter","url":"https://twitter.com/cryptofamous","type":"twitter"}],"tags":[]},{"dappId":280,"name":"All For 1","description":"All For 1 is a fully decentralized raffle game tha","fullDescription":"All For 1 is a fully decentralized raffle game that chooses 1 out of 100 players to receive the whole jackpot!","logo":null,"link":"https://dappradar.com/dapp/all-for-1","website":"http://www.allfor1.io/","chains":["ethereum"],"categories":["gambling"],"socialLinks":[{"title":"Official Twitter","url":"https://www.twitter.com/allfor1_io","type":"twitter"}],"tags":[]},{"dappId":281,"name":"EtherHilo","description":"EtherHilo is a game of chance on the Ethereum bloc","fullDescription":"EtherHilo is a game of chance on the Ethereum blockchain.","logo":null,"link":"https://dappradar.com/dapp/etherhilo","website":"https://hilo.vegas/","chains":["ethereum"],"categories":["gambling"],"socialLinks":[],"tags":[]},{"dappId":282,"name":"SpringRole","description":"Decentralized Professional profile ","fullDescription":"Decentralized Professional profile ","logo":null,"link":"https://dappradar.com/dapp/springrole","website":"https://springrole.com/","chains":["ethereum"],"categories":["other"],"socialLinks":[{"title":"Official Twitter","url":"https://twitter.com/springroleinc","type":"twitter"}],"tags":[]},{"dappId":283,"name":"Darkwinds","description":"Darkwinds is an on-line trading card game that run","fullDescription":"Darkwinds is an on-line trading card game that runs on top of the Ethereum network. More specifically, all Darkwinds cards are non-fungible tokens or cryptocollectibles, a new standard for virtual objects where players have perpetual rights to sell, trade and give away their items, both within and outside of the game's ecosystem. This is possible thanks to the same technology that makes cryptocurrency possible, as Darkwinds cards exist on the same Blockchain used by all Ethereum tokens.","logo":"https://dashboard-assets.dappradar.com/geRRcWz9IdTwSrm1/document/283/darkwinds-dapp-games-eth-logo_848b1b70e053d6858f4ad1a368edfc02.png","link":"https://dappradar.com/dapp/darkwinds","website":"http://playdarkwinds.com","chains":["ethereum"],"categories":["games"],"socialLinks":[{"title":"Blog","url":"https://playdarkwinds.com/blog","type":"other"},{"title":"Official Discord","url":"https://discordapp.com/invite/AdZQ8Zu","type":"discord"},{"title":"Official Facebook","url":"https://www.facebook.com/playdarkwinds/","type":"facebook"},{"title":"Official Reddit","url":"https://www.reddit.com/r/darkwinds","type":"reddit"},{"title":"Official Twitter","url":"https://twitter.com/playdarkwinds","type":"twitter"}],"tags":[]},{"dappId":284,"name":"CryptoBeauty","description":"Collect and own the most beautiful women throughou","fullDescription":"Collect and own the most beautiful women throughout the history\ndescription: It's for you to decide which ones are your favorite beauties from the history. Explore the collection and claim your ownership on your favorites, and even profit from within the game. Aim to be the most valuable and sophisticated owner!","logo":null,"link":"https://dappradar.com/dapp/cryptobeauty","website":"http://cryptobeauty.dapp-collect.io/","chains":["ethereum"],"categories":["games"],"socialLinks":[],"tags":[]},{"dappId":285,"name":"Life Lottery","description":"100% fair and decentralized lottery based on Ether","fullDescription":"100% fair and decentralized lottery based on Ethereum blockchain technology","logo":null,"link":"https://dappradar.com/dapp/life-lottery","website":"https://lifelottery.github.io/","chains":["ethereum"],"categories":["gambling"],"socialLinks":[{"title":"Discussion","url":"https://lifelottery.herokuapp.com/","type":"other"},{"title":"Github (client)","url":"https://github.com/re2005/ETHLottery-Client","type":"other"},{"title":"Github (contract)","url":"https://github.com/renasboy/ETHLottery","type":"other"},{"title":"How to play video","url":"https://www.youtube.com/watch?v=Io3SaaeN1eE","type":"other"}],"tags":[]},{"dappId":286,"name":"Etharea","description":"Purchase countries via smart contract on Ethereum ","fullDescription":"Purchase countries via smart contract on Ethereum network. Customize them the way you want, make them stand out in the marketplace.","logo":null,"link":"https://dappradar.com/dapp/etharea","website":"https://etharea.co/","chains":["ethereum"],"categories":["games"],"socialLinks":[{"title":"Official Discord","url":"https://discord.gg/PJEExhh","type":"discord"},{"title":"Official Twitter","url":"https://twitter.com/EthareaApp","type":"twitter"}],"tags":[]},{"dappId":287,"name":"EtherFen - Digital Grave on Blockchain","description":"We put the graveyard in the blockchain. How cyberp","fullDescription":"We put the graveyard in the blockchain. How cyberpunk isn't it?","logo":null,"link":"https://dappradar.com/dapp/etherfen-digital-grave-on-blockchain","website":"http://www.etherfen.com/","chains":["ethereum"],"categories":["other"],"socialLinks":[],"tags":[]},{"dappId":288,"name":"Dicether","description":"The fastest, secure and provably fair ethereum state-channel casino","fullDescription":"<p>The fastest, secure and provably ethereum casino using state channel technology. Play dice, keno, wheel and more games.</p>","logo":"https://dashboard-assets.dappradar.com/geRRcWz9IdTwSrm1/document/288/dicether-dapp-gambling-ethereum-logo_57348c8d48b3cce50c4ffcc3fb257bc6.png","link":"https://dappradar.com/dapp/dicether","website":"https://dicether.com/","chains":["ethereum"],"categories":["gambling"],"socialLinks":[{"title":"discord","url":"https://discord.gg/kD7FajM","type":"discord"},{"title":"reddit","url":"https://www.reddit.com/r/Dicether/","type":"reddit"},{"title":"twitter","url":"https://twitter.com/dicether","type":"twitter"}],"tags":[]},{"dappId":289,"name":"WorldCryptoWar","description":"Buy countries and attack attack others","fullDescription":"Buy countries and attack attack others","logo":null,"link":"https://dappradar.com/dapp/worldcryptowar","website":"http://worldcryptowar.com/","chains":["ethereum"],"categories":["games"],"socialLinks":[],"tags":[]},{"dappId":290,"name":"CryptoMemes.Fun","description":"CryptoMemes is a digital marketplace to create, bu","fullDescription":"CryptoMemes is a digital marketplace to create, buy and sell digital art, in this case, memes. A crypto meme is a valuable and unique digital collectible.","logo":null,"link":"https://dappradar.com/dapp/cryptomemes-fun","website":"http://cryptomemes.fun/","chains":["ethereum"],"categories":["games"],"socialLinks":[],"tags":[]},{"dappId":291,"name":"Hashworld","description":"HashWorld is the world’s first blockchain game wit","fullDescription":"HashWorld is the world’s first blockchain game with virtual economic qualities--a blockchain version of monopoly. You can play games to “mine” tokens and complete tasks to obtain high-value digital currency such as bitcoin! Then you can bid iconic lands around the world using your digital asset. Based on blockchain technology, HashWorld is able to guarantee that each piece of virtual land is unique, freehold, and free to trade. Come and become a millionaire in HashWorld!","logo":null,"link":"https://dappradar.com/dapp/hashworld","website":"https://www.hashworld.top/en.html","chains":["ethereum"],"categories":["games"],"socialLinks":[{"title":"Medium article","url":"https://medium.com/@YinghaoJia/popularize-blockchain-knowledge-with-gamification-hashworld-received-2-million-pre-a-round-3450fe243bb4","type":"other"},{"title":"Official Facebook","url":"https://www.facebook.com/HashWorldGlobal/","type":"facebook"},{"title":"Official Medium","url":"https://medium.com/@hashworldmaster","type":"medium"},{"title":"Official Telegram","url":"https://t.me/hashworldglobal","type":"telegram"},{"title":"Official Twitter","url":"https://twitter.com/hashworld_hsc","type":"twitter"},{"title":"Official Youtube","url":"https://www.youtube.com/channel/UC3JpoiSYfACbvnyPAFAViIQ?view_as=subscriber","type":"youtube"},{"title":"Steemit","url":"https://steemit.com/@hashworld","type":"other"}],"tags":[]},{"dappId":292,"name":"EtherChat","description":"A decentralized messaging application running on E","fullDescription":"A decentralized messaging application running on Ethereum network","logo":null,"link":"https://dappradar.com/dapp/etherchat","website":"https://etherchat.co/","chains":["ethereum"],"categories":["other"],"socialLinks":[{"title":"Medium article","url":"https://medium.com/@leonardnguyen/etherchat-decentralized-messaging-application-on-ethereum-network-part-1-253e5078770b\n","type":"other"},{"title":"Official Github","url":"https://github.com/nhatminh12369/etherchat","type":"github"}],"tags":[]},{"dappId":293,"name":"CryptoCocktailBar","description":"Collect your favorite cocktails on the blockchain!","fullDescription":"Collect your favorite cocktails on the blockchain!","logo":null,"link":"https://dappradar.com/dapp/cryptococktailbar","website":"http://www.cryptococktailbar.com/","chains":["ethereum"],"categories":["games"],"socialLinks":[],"tags":[]},{"dappId":294,"name":"Ethername","description":"Designed for any DAPPs to have username feature wi","fullDescription":"Designed for any DAPPs to have username feature without additional implementation.","logo":null,"link":"https://dappradar.com/dapp/ethername","website":"https://ethername.co/","chains":["ethereum"],"categories":["other"],"socialLinks":[],"tags":[]},{"dappId":295,"name":"PoWL","description":null,"fullDescription":null,"logo":null,"link":"https://dappradar.com/dapp/powl","website":"https://powl.io/","chains":["ethereum"],"categories":["high-risk"],"socialLinks":[],"tags":[]},{"dappId":296,"name":"PoHD","description":null,"fullDescription":null,"logo":null,"link":"https://dappradar.com/dapp/pohd","website":"https://pohd.io/","chains":["ethereum"],"categories":["high-risk"],"socialLinks":[],"tags":[]},{"dappId":297,"name":"PoWM","description":null,"fullDescription":null,"logo":null,"link":"https://dappradar.com/dapp/powm","website":"https://powm.io/","chains":["ethereum"],"categories":["high-risk"],"socialLinks":[],"tags":[]},{"dappId":298,"name":"Po50","description":null,"fullDescription":null,"logo":null,"link":"https://dappradar.com/dapp/po50","website":"http://po50.surge.sh/exchange/","chains":["ethereum"],"categories":["high-risk"],"socialLinks":[],"tags":[]},{"dappId":299,"name":"PoWC","description":null,"fullDescription":null,"logo":null,"link":"https://dappradar.com/dapp/powc","website":"http://powc.surge.sh/","chains":["ethereum"],"categories":["high-risk"],"socialLinks":[],"tags":[]},{"dappId":300,"name":"PoJ","description":"Pyramid","fullDescription":"Pyramid","logo":null,"link":"https://dappradar.com/dapp/poj","website":"http://poj.surge.sh/","chains":["ethereum"],"categories":["high-risk"],"socialLinks":[{"title":"Official Discord","url":"https://discord.gg/sH6PgTq","type":"discord"}],"tags":[]},{"dappId":301,"name":"POWH33","description":"Autonomous and Self-Sustaining Pyramid Scheme","fullDescription":"Autonomous and Self-Sustaining Pyramid Scheme","logo":null,"link":"https://dappradar.com/dapp/powh33","website":"https://powh33.ml/","chains":["ethereum"],"categories":["high-risk"],"socialLinks":[{"title":"Official Discord","url":"https://discord.gg/rcjDFYU","type":"discord"},{"title":"Official Twitter","url":"https://twitter.com/POWH33_","type":"twitter"}],"tags":[]},{"dappId":302,"name":"Block Stack Game","description":"Earn tokens by stacking blocks","fullDescription":"Earn tokens by stacking blocks","logo":null,"link":"https://dappradar.com/dapp/block-stack-game","website":"https://blockstackgame.com/","chains":["ethereum"],"categories":["games"],"socialLinks":[],"tags":[]},{"dappId":303,"name":"celebs.party","description":"collect and discover celebrities on the ethereum b","fullDescription":"collect and discover celebrities on the ethereum blockchain","logo":null,"link":"https://dappradar.com/dapp/celebs-party","website":"https://celebs.party","chains":["ethereum"],"categories":["games"],"socialLinks":[],"tags":[]},{"dappId":304,"name":"PODevil","description":null,"fullDescription":null,"logo":null,"link":"https://dappradar.com/dapp/podevil","website":"http://xsparfuchs.github.io/potd/","chains":["ethereum"],"categories":["high-risk"],"socialLinks":[],"tags":[]},{"dappId":305,"name":"PoFOMO","description":"Earn Ether by holding tokens - fairer token price ","fullDescription":"Earn Ether by holding tokens - fairer token price increase!","logo":null,"link":"https://dappradar.com/dapp/pofomo","website":"https://pofomo.online/","chains":["ethereum"],"categories":["high-risk"],"socialLinks":[],"tags":[]},{"dappId":306,"name":"Proof of Strong Body","description":"PoSB 20% divs on entry fee, 25% divs on exit fee a","fullDescription":"PoSB 20% divs on entry fee, 25% divs on exit fee and 7% referrals ;)","logo":null,"link":"https://dappradar.com/dapp/proof-of-strong-body","website":"https://posb.io/","chains":["ethereum"],"categories":["high-risk"],"socialLinks":[],"tags":[]},{"dappId":307,"name":"Unkoin","description":"We are the \"Unkoin\"- A pyramid game with BIG rewar","fullDescription":"We are the \"Unkoin\"- A pyramid game with BIG rewards","logo":null,"link":"https://dappradar.com/dapp/unkoin","website":"https://unkoin.com/?masternode=0xffd4c92f7ab9075e0faada86dfa22784bb4fe56c&","chains":["ethereum"],"categories":["other"],"socialLinks":[],"tags":[]},{"dappId":308,"name":"Proof of Hot Body","description":"game to determine who has hot body (pow style)","fullDescription":"game to determine who has hot body (pow style)","logo":null,"link":"https://dappradar.com/dapp/proof-of-hot-body","website":"http://pohb.surge.sh/","chains":["ethereum"],"categories":["high-risk"],"socialLinks":[{"title":"Official Discord","url":"https://discord.gg/Ry5d9vN","type":"discord"}],"tags":[]}],"page":5,"pageCount":91,"resultCount":4541,"resultsPerPage":50}