{"success":true,"results":[{"dappId":472,"name":"Halo Doge Pound","description":"Use Halo3D tokens to breed Doge puppies to sell!","fullDescription":"Use Halo3D tokens to breed Doge puppies to sell!","logo":null,"link":"https://dappradar.com/dapp/halo-doge-pound","website":"https://h3d.pw/","chains":["ethereum"],"categories":["other"],"socialLinks":[],"tags":[]},{"dappId":473,"name":"SnailFarm","description":"Shrimp-like idle game, with anti-bot features","fullDescription":"Shrimp-like idle game, with anti-bot features","logo":null,"link":"https://dappradar.com/dapp/snailfarm","website":"https://snailking.github.io/snailfarm/?ref=0x86060b7959451f44ea1a15bd2b2da22f28e6f3ce&","chains":["ethereum"],"categories":["high-risk"],"socialLinks":[],"tags":[]},{"dappId":474,"name":"0xBabylon","description":"Galactic Economy Simulator - Miner","fullDescription":"Galactic Economy Simulator - Miner","logo":null,"link":"https://dappradar.com/dapp/0xbabylon","website":"http://0xBabylon.com/","chains":["ethereum"],"categories":["other"],"socialLinks":[],"tags":[]},{"dappId":475,"name":"Eth Dragon Farm","description":"This is the very 1st dragon farming idle game powe","fullDescription":"This is the very 1st dragon farming idle game powered by blockchain where you can earn ethers, just by doing NOTHING.","logo":null,"link":"https://dappradar.com/dapp/eth-dragon-farm","website":"http://ethdragonfarm.com/","chains":["ethereum"],"categories":["high-risk"],"socialLinks":[{"title":"Official BitcoinTalk","url":"https://bitcointalk.org/index.php?topic=3978269.0","type":"other"},{"title":"Official Discord","url":"https://discordapp.com/invite/3rBAQk3","type":"discord"},{"title":"Official Medium","url":"https://medium.com/@ethdragonfarm","type":"medium"},{"title":"Official Twitter","url":"https://twitter.com/ethdragonfarm","type":"twitter"}],"tags":[]},{"dappId":476,"name":"ETH Dinosaur Farmer","description":" ","fullDescription":" ","logo":null,"link":"https://dappradar.com/dapp/eth-dinosaur-farmer","website":"http://www.512aiai.com?ref=0x86060b7959451f44ea1a15bd2b2da22f28e6f3ce&","chains":["ethereum"],"categories":["high-risk"],"socialLinks":[],"tags":[]},{"dappId":477,"name":"Etheropoly ","description":"Earn 15% rewards on ALL BUYS/SELLS/MASTERNODE Refe","fullDescription":"Earn 15% rewards on ALL BUYS/SELLS/MASTERNODE Referrals + Farm Tokens using our Crypto IDLE GAME","logo":null,"link":"https://dappradar.com/dapp/etheropoly","website":"https://etheropoly.co","chains":["ethereum"],"categories":["other"],"socialLinks":[],"tags":[]},{"dappId":478,"name":"Ether Shrooms Farm","description":"Farm shrooms on the blockchain and sell them for E","fullDescription":"Farm shrooms on the blockchain and sell them for Eth!","logo":null,"link":"https://dappradar.com/dapp/ether-shrooms-farm","website":"https://ethershrooms.surge.sh?ref=0x86060b7959451f44ea1a15bd2b2da22f28e6f3ce&","chains":["ethereum"],"categories":["high-risk"],"socialLinks":[],"tags":[]},{"dappId":479,"name":"Power Of The Oracle","description":"Harness the power of the Oracle to increase your e","fullDescription":"Harness the power of the Oracle to increase your ethereum supply.","logo":null,"link":"https://dappradar.com/dapp/power-of-the-oracle","website":"https://poweroftheoracle.io","chains":["ethereum"],"categories":["high-risk"],"socialLinks":[],"tags":[]},{"dappId":480,"name":"Lobster Farm","description":" ","fullDescription":" ","logo":null,"link":"https://dappradar.com/dapp/lobster-farm","website":"https://lobsterfarm.fun/?ref=0x86060b7959451f44ea1a15bd2b2da22f28e6f3ce&","chains":["ethereum"],"categories":["high-risk"],"socialLinks":[],"tags":[]},{"dappId":481,"name":"BitPainting - Early Access","description":"Collect iconic artwork and mint rare editions on t","fullDescription":"Collect iconic artwork and mint rare editions on the Blockchain","logo":null,"link":"https://dappradar.com/dapp/bitpainting-early-access","website":"https://earlyaccess.bitpainting.com/","chains":["ethereum"],"categories":["marketplaces"],"socialLinks":[{"title":"Official Discord","url":"https://discordapp.com/invite/AjFmdhr","type":"discord"},{"title":"Official Instagram","url":"https://www.instagram.com/bitpainting/","type":"instagram"},{"title":"Official Twitter","url":"https://twitter.com/bitpainting","type":"twitter"}],"tags":[]},{"dappId":482,"name":"GeoEth","description":"A new geography guessing game.","fullDescription":"A new geography guessing game.","logo":null,"link":"https://dappradar.com/dapp/geoeth","website":"https://geoeth.co","chains":["ethereum"],"categories":["games"],"socialLinks":[],"tags":[]},{"dappId":483,"name":"Crypto Sim","description":"Idle game, featuring anti-bot and anti-inflation m","fullDescription":"Idle game, featuring anti-bot and anti-inflation mechanics","logo":null,"link":"https://dappradar.com/dapp/crypto-sim","website":"http://cryptosim.surge.sh/","chains":["ethereum"],"categories":["games"],"socialLinks":[],"tags":[]},{"dappId":484,"name":"EtherFarmDev Simulator","description":"Hire developers to produce DApps, then do an exit ","fullDescription":"Hire developers to produce DApps, then do an exit scam on them to get eth!","logo":null,"link":"https://dappradar.com/dapp/etherfarmdev-simulator","website":"https://etherfarmdevsimulator.surge.sh","chains":["ethereum"],"categories":["high-risk"],"socialLinks":[],"tags":[]},{"dappId":485,"name":"Ethereum Cute Cat Farm","description":"hatch cute cats","fullDescription":"hatch cute cats","logo":null,"link":"https://dappradar.com/dapp/ethereum-cute-cat-farm","website":"https://kittyfarm.github.io/","chains":["ethereum"],"categories":["high-risk"],"socialLinks":[],"tags":[]},{"dappId":486,"name":"Revolution1","description":"Ethereum virtual deposit game","fullDescription":"Ethereum virtual deposit game","logo":null,"link":"https://dappradar.com/dapp/revolution1","website":"https://revolution1.org/","chains":["ethereum"],"categories":["other"],"socialLinks":[{"title":"Official Discord","url":"https://discord.gg/kjnNF7a","type":"discord"},{"title":"Official YouTube","url":"https://www.youtube.com/channel/UCv53g2Cuc0ugvmpuuF9iSUQ","type":"youtube"}],"tags":[]},{"dappId":487,"name":"EtherSpermBank","description":"Ether Sperm Bank is the #1 sperm making machine on","fullDescription":"Ether Sperm Bank is the #1 sperm making machine on the Ethereum network! The more sperms you have, the more cells they can produce!","logo":null,"link":"https://dappradar.com/dapp/etherspermbank","website":"http://etherspermbank.com/?ref=0x86060b7959451f44ea1a15bd2b2da22f28e6f3ce&","chains":["ethereum"],"categories":["games"],"socialLinks":[],"tags":[]},{"dappId":488,"name":"Digital Art Chain","description":"You can publish your digital art as ERC721 token o","fullDescription":"You can publish your digital art as ERC721 token on Ethereum platform","logo":null,"link":"https://dappradar.com/dapp/digital-art-chain","website":"http://digitalartchain.com/","chains":["ethereum"],"categories":["other"],"socialLinks":[{"title":"Official Medium","url":"https://medium.com/@ookimaki/digital-art-chain-is-now-live-convert-your-digital-art-into-erc721-token-87df83e347c9","type":"medium"}],"tags":[]},{"dappId":489,"name":"Moon, Inc. - Idle Game + Pyramids","description":"Competitive Ethereum Idle Game + Pyramids","fullDescription":"Competitive Ethereum Idle Game + Pyramids","logo":null,"link":"https://dappradar.com/dapp/moon-inc-idle-game-pyramids","website":"https://mooninc.io/?masternode=0x86060B7959451f44ea1a15Bd2b2dA22f28E6F3Ce&","chains":["ethereum"],"categories":["games"],"socialLinks":[{"title":"Official Discord","url":"https://discord.gg/9Ab8Az3","type":"discord"}],"tags":[]},{"dappId":490,"name":"The Jigsaw Games","description":"The Jigsaw Games is a platform that aims to run mu","fullDescription":"The Jigsaw Games is a platform that aims to run multiple Ethereum based games. ","logo":null,"link":"https://dappradar.com/dapp/the-jigsaw-games","website":"https://www.jiggs.io","chains":["ethereum"],"categories":["games"],"socialLinks":[{"title":"Official Discord","url":"https://discord.gg/d3DDVhQ","type":"discord"},{"title":"Official Instagram","url":"https://instagram.com/p/BjBG_LmlaIq/","type":"instagram"},{"title":"Official Twitter","url":"https://twitter.com/TheJigsawGames","type":"twitter"},{"title":"YouTube Video","url":"https://youtu.be/IxI9DXfq-vg","type":"youtube"}],"tags":[]},{"dappId":491,"name":"SnakeFarm - Idle","description":"The more snake you have, the more eggs they lay (e","fullDescription":"The more snake you have, the more eggs they lay (each snake lays at a rate of 1 per day). Hatch more snake with your eggs to multiply your production, or cash them out for Ethereum!","logo":null,"link":"https://dappradar.com/dapp/snakefarm-idle","website":"https://snakekings.github.io/snakefarm/?ref=0x86060b7959451f44ea1a15bd2b2da22f28e6f3ce&","chains":["ethereum"],"categories":["high-risk"],"socialLinks":[{"title":"Official Discord","url":"https://discord.gg/9jcREJx","type":"discord"}],"tags":[]},{"dappId":492,"name":"Tard Farmer Club","description":"Welcome to the Tard Farmer Club - Anti-bot and Inf","fullDescription":"Welcome to the Tard Farmer Club - Anti-bot and Inflation controlled Eth Farmer game with hilarious memes!","logo":null,"link":"https://dappradar.com/dapp/tard-farmer-club","website":"http://tardfarmer.club/","chains":["ethereum"],"categories":["high-risk"],"socialLinks":[],"tags":[]},{"dappId":493,"name":"etherHabits","description":"etherHabits is an Ethereum based smart contract th","fullDescription":"etherHabits is an Ethereum based smart contract that allows users to deposit ETH in order to motivate themselves to commit to a daily habit. Users deposit ETH and \"check-in\" every day they stick to their commitment. Users can withdraw the full deposit for the days they \"check-in\" and can earn a little extra by splitting the deposit that was forfeited by others.","logo":null,"link":"https://dappradar.com/dapp/etherhabits","website":"https://etherhabits.com","chains":["ethereum"],"categories":["other"],"socialLinks":[{"title":"Official Telegram","url":"http://t.me/etherhabits","type":"telegram"}],"tags":[]},{"dappId":494,"name":"Pooh Farmer","description":"another idle game.... just with pooh","fullDescription":"another idle game.... just with pooh","logo":null,"link":"https://dappradar.com/dapp/pooh-farmer","website":"https://number2.io/poohFarmer.html","chains":["ethereum"],"categories":["high-risk"],"socialLinks":[{"title":"Official Discord","url":"https://discord.gg/Cg5htYS","type":"discord"}],"tags":[]},{"dappId":495,"name":"Ether Alligators Farm","description":"Crypto Idle Game","fullDescription":"Crypto Idle Game","logo":null,"link":"https://dappradar.com/dapp/ether-alligators-farm","website":"https://alligators.ethercrocsfarm.site?ref=0x86060b7959451f44ea1a15bd2b2da22f28e6f3ce&","chains":["ethereum"],"categories":["high-risk"],"socialLinks":[],"tags":[]},{"dappId":496,"name":"EtherEmpire","description":"Collect and Trade Crypto Bonds on the Ethereum Blo","fullDescription":"Collect and Trade Crypto Bonds on the Ethereum Blockchain","logo":null,"link":"https://dappradar.com/dapp/etherempire","website":"https://etherempire.io","chains":["ethereum"],"categories":["other"],"socialLinks":[{"title":"Official Twitter","url":"https://twitter.com/etherempireio","type":"twitter"}],"tags":[]},{"dappId":497,"name":"WorldCupToken","description":"WorldCup 2018 Crypto-Game  (language: Chinese)","fullDescription":"WorldCup 2018 Crypto-Game  (language: Chinese)","logo":null,"link":"https://dappradar.com/dapp/worldcuptoken","website":"http://ethplay.org","chains":["ethereum"],"categories":["games"],"socialLinks":[{"title":"Official Telegram","url":"https://t.me/ethplayorg","type":"telegram"}],"tags":[]},{"dappId":498,"name":"etherdoodle","description":"Etherdoodle is a collaborative canvas where users ","fullDescription":"Etherdoodle is a collaborative canvas where users participate in the creation and transformation of images by purchasing pixels on the Ethereum blockchain.","logo":null,"link":"https://dappradar.com/dapp/etherdoodle","website":"https://etherdoodle.com","chains":["ethereum"],"categories":["games"],"socialLinks":[{"title":"Official Discord","url":"https://discordapp.com/invite/jTcpaqp","type":"discord"},{"title":"Official Reddit","url":"https://www.reddit.com/r/etherdoodle/","type":"reddit"},{"title":"Official Twitter","url":"https://twitter.com/etherdoodle","type":"twitter"}],"tags":[]},{"dappId":499,"name":"Crypto Gaming Coin ","description":" ","fullDescription":" ","logo":null,"link":"https://dappradar.com/dapp/crypto-gaming-coin","website":"http://cryptogamingcoin.surge.sh/","chains":["ethereum"],"categories":["games"],"socialLinks":[{"title":"Official Discord","url":"https://discordapp.com/invite/2xyYGK3","type":"discord"}],"tags":[]},{"dappId":500,"name":"Bankster Farming IDLE","description":"Ether Banker Farm is the #1 bankster farming simul","fullDescription":"Ether Banker Farm is the #1 bankster farming simulator and idle game on the blockchain. The more banker you have, the more money they lay (each bankster lays at a rate of 1 per day). Hatch more bankster with your money to multiply your production, or cash them out for Ethereum!","logo":null,"link":"https://dappradar.com/dapp/bankster-farming-idle","website":"https://adamsjason.github.io/Banksters/?ref=0x86060b7959451f44ea1a15bd2b2da22f28e6f3ce&","chains":["ethereum"],"categories":["high-risk"],"socialLinks":[],"tags":[]},{"dappId":501,"name":"Ether Morty Farm","description":"Wubba Lubba Dub Dub!","fullDescription":"Wubba Lubba Dub Dub!","logo":null,"link":"https://dappradar.com/dapp/ether-morty-farm","website":"http://ethmorty.ga/","chains":["ethereum"],"categories":["high-risk"],"socialLinks":[],"tags":[]},{"dappId":502,"name":"EtherFalcon - Idle Game","description":" ","fullDescription":" ","logo":null,"link":"https://dappradar.com/dapp/etherfalcon-idle-game","website":"https://idlekings.github.io/Falcon/","chains":["ethereum"],"categories":["games"],"socialLinks":[],"tags":[]},{"dappId":503,"name":"Spider Farm","description":"Improved experimental idle game","fullDescription":"Improved experimental idle game","logo":null,"link":"https://dappradar.com/dapp/spider-farm","website":"http://spiderfarm.surge.sh","chains":["ethereum"],"categories":["high-risk"],"socialLinks":[],"tags":[]},{"dappId":504,"name":"Eth Dragon Ball Z Farm","description":"Ether DragonBallZ is a farming simulator and idle ","fullDescription":"Ether DragonBallZ is a farming simulator and idle game on the blockchain. The more Gokus you have, the more balls they find (each Goku finds at a rate of 1 ball per day). Produce more Gokus with your balls to multiply your production, or cash them out for Ethereum!","logo":null,"link":"https://dappradar.com/dapp/eth-dragon-ball-z-farm","website":"http://dragonballz.site/","chains":["ethereum"],"categories":["high-risk"],"socialLinks":[{"title":"Official Discord","url":"https://discordapp.com/invite/43DSdfb","type":"discord"}],"tags":[]},{"dappId":505,"name":"Cryptocup ","description":"Cryptocup started as a World Cup prediction gam","fullDescription":"<p>Cryptocup started as a World Cup prediction game with ERC721. Currently, still a prediction game but slightly different to the original one as the predictions are related to the European Leagues. It is really easy, just predict the winner of 13 matches. If they are ok, you win the pot. The pot is funded by investors who are winning the earnings in case the are no winners. Finally, you can build private leagues and challenge your friends!</p>\r\n","logo":"https://dashboard-assets.dappradar.com/geRRcWz9IdTwSrm1/document/505/cryptocup-dapp-games-eth-logo_694b57eb37aac39ba2c40bc553d63f31.png","link":"https://dappradar.com/dapp/cryptocup","website":"https://cryptocup.io/","chains":["ethereum"],"categories":["games"],"socialLinks":[{"title":"Marketplace","url":"https://www.cryptocup.io/marketplace","type":"other"},{"title":"Official Facebook","url":"https://www.facebook.com/cryptocup","type":"facebook"},{"title":"Official Twitter","url":"https://www.twitter.com/cryptocup_io","type":"twitter"},{"title":"YouTube Video","url":"https://www.youtube.com/watch?v=gZQZ991JpXU","type":"youtube"}],"tags":[]},{"dappId":506,"name":"CasinoFair (FUN)","description":"CasinoFair - best experience on the blockchain","fullDescription":"<p>The first casino powered by FunFair&#39;s revolutionary technology, CasinoFair delivers industry leading casino games that blaze the way in speed, entertainment and fairness. No more waiting around for results or paying large fees to play, CasinoFair has the ultimate solution that allows for seamless, instant play, giving the player the best experience on the blockchain.</p>","logo":"https://dashboard-assets.dappradar.com/geRRcWz9IdTwSrm1/document/506/casinofairfun-dapp-gambling-eth-logo_538452398ac877d31447f626e1ab7195.png","link":"https://dappradar.com/dapp/casinofair-fun","website":"https://casinofair.com/","chains":["ethereum"],"categories":["gambling"],"socialLinks":[{"title":"discord","url":"https://discordapp.com/invite/rwETqSP","type":"discord"},{"title":"reddit","url":"https://www.reddit.com/r/FunfairTech/","type":"reddit"},{"title":"telegram","url":"https://t.me/CasinoFair","type":"telegram"},{"title":"twitter","url":"https://twitter.com/casino_fair","type":"twitter"},{"title":"youtube","url":"https://www.youtube.com/channel/UCjvohXszacMrJ0S4BQ1pAyA","type":"youtube"}],"tags":[]},{"dappId":507,"name":"Proof of Fair Launch","description":"A fair launch, go in small and hold","fullDescription":"A fair launch, go in small and hold","logo":null,"link":"https://dappradar.com/dapp/proof-of-fair-launch","website":"https://pofl.co","chains":["ethereum"],"categories":["high-risk"],"socialLinks":[],"tags":[]},{"dappId":510,"name":"GPU Mining Simulator","description":"Simulate GPU Mining to sell your THs for Ethereum!","fullDescription":"Simulate GPU Mining to sell your THs for Ethereum! Anti-bot / Anti-Whale Proof.","logo":null,"link":"https://dappradar.com/dapp/gpu-mining-simulator","website":"http://gpumining.xyz","chains":["ethereum"],"categories":["games"],"socialLinks":[{"title":"Official Discord","url":"https://discord.gg/Mm6zMWB","type":"discord"}],"tags":[]},{"dappId":511,"name":"Partial Basic","description":"Partial Basic is a cryptocurrency that you mine wi","fullDescription":"Partial Basic is a cryptocurrency that you mine with a virtual machine rather than a GPU or ASIC.\r\n\r\nThis project presents a more inclusive, private, inexpensive, and environmentally friendly design compared to PoW based mineable tokens.","logo":null,"link":"https://dappradar.com/dapp/partial-basic","website":"https://partialbasic.com/","chains":["ethereum"],"categories":["other"],"socialLinks":[],"tags":[]},{"dappId":512,"name":"DEXY","description":" ","fullDescription":" ","logo":null,"link":"https://dappradar.com/dapp/dexy","website":"https://app.dexy.exchange/","chains":["ethereum"],"categories":["exchanges"],"socialLinks":[{"title":"Official Twitter","url":"https://twitter.com/DexyProject","type":"twitter"}],"tags":[]},{"dappId":513,"name":"Dino Farm Land","description":"Dino Farm Land is Farming game built on top of eth","fullDescription":"Dino Farm Land is Farming game built on top of ethereum blockchain","logo":null,"link":"https://dappradar.com/dapp/dino-farm-land","website":"https://dinofarmland.fun","chains":["ethereum"],"categories":["high-risk"],"socialLinks":[{"title":"Official Discord","url":"https://discord.gg/wMv7k8","type":"discord"}],"tags":[]},{"dappId":514,"name":"Ether Owls Nest - Idle Game ","description":"Ether Idle Game ","fullDescription":"Ether Idle Game ","logo":null,"link":"https://dappradar.com/dapp/ether-owls-nest-idle-game","website":"https://ethowls.github.io/OwlsNest/","chains":["ethereum"],"categories":["games"],"socialLinks":[],"tags":[]},{"dappId":515,"name":"HIPSTER","description":"Earn Ethereum Farming Hipster!\r\nEther Hipster Farm","fullDescription":"Earn Ethereum Farming Hipster!\r\nEther Hipster Farm is the #1 hipster farming simulator and idle game on the blockchain. The more hipster you have, the more beards they lay (each hipster lays at a rate of 1 per day). Hatch more hipster with your beards to multiply your production, or cash them out for Ethereum!","logo":null,"link":"https://dappradar.com/dapp/hipster","website":"https://idlekings.github.io/HipsterGame/index.html","chains":["ethereum"],"categories":["games"],"socialLinks":[{"title":"Official Discord","url":"https://discord.gg/YKsMGuH","type":"discord"}],"tags":[]},{"dappId":516,"name":"Solethium","description":"Own, control and make a profit from the gorgeous S","fullDescription":"Own, control and make a profit from the gorgeous Solar System on the blockchain.","logo":null,"link":"https://dappradar.com/dapp/solethium","website":"https://solethium.com","chains":["ethereum"],"categories":["games"],"socialLinks":[{"title":"Official Twitter","url":"https://twitter.com/solethium","type":"twitter"}],"tags":[]},{"dappId":517,"name":"EthLikes","description":"Anonymously send reactions and messages to people ","fullDescription":"Anonymously send reactions and messages to people on the blockchain","logo":null,"link":"https://dappradar.com/dapp/ethlikes","website":"https://ethlikes.com","chains":["ethereum"],"categories":["other"],"socialLinks":[],"tags":[]},{"dappId":518,"name":"Hello Dogs","description":" Hello Dogs is an online game based on ethereum, w","fullDescription":" Hello Dogs is an online game based on ethereum, which combine lots of functions such as birth, auction, marketplace,sale, siring, transfer,lottery, genes combination, recycle and so on. \r\n      The currency in the game is ether, people can use ether to buy dog, and siring for new dog.\r\n      Each dog has special genes combination, the contract will generate lucky number combination every 2 days, if your dogs' genes equal to the lucky combination, you will get award.","logo":null,"link":"https://dappradar.com/dapp/hello-dogs","website":"http://www.hellodogs.co/","chains":["ethereum"],"categories":["collectibles"],"socialLinks":[],"tags":[]},{"dappId":519,"name":"Jungle Scratch","description":"Decentralized scratch game. If you have 3 same Bir","fullDescription":"Decentralized scratch game. If you have 3 same Birds, you can get the award.","logo":null,"link":"https://dappradar.com/dapp/jungle-scratch","website":"https://pigworld.github.io/Jungle-Scratch-ETH/","chains":["ethereum"],"categories":["gambling"],"socialLinks":[{"title":"Information","url":"https://pig.world/","type":"other"}],"tags":[]},{"dappId":520,"name":"EtherPointers","description":"EtherPointers.com is a website where anyone can bu","fullDescription":"EtherPointers.com is a website where anyone can buy a pointer = link + description. It will stay on the website until it gets replaced as the oldest of 15 pointers, but never sooner than in one hour","logo":null,"link":"https://dappradar.com/dapp/etherpointers","website":"https://etherpointers.com/","chains":["ethereum"],"categories":["other"],"socialLinks":[],"tags":[]},{"dappId":521,"name":"Copa Del Crypto","description":"Copa Del Crypto is a worldwide decentralized predi","fullDescription":"Copa Del Crypto is a worldwide decentralized prediction contest for the 2018 FIFA World Cup : \r\n- Submit your predictions for group stage and knockout rounds \r\n- Join the prediction pool and place your bet \r\n- Collect your prize after the World Cup final\r\n\r\nUp To x100 for the best! No fees.","logo":null,"link":"https://dappradar.com/dapp/copa-del-crypto","website":"https://copadelcrypto.com/","chains":["ethereum"],"categories":["games"],"socialLinks":[{"title":"Official Twitter","url":"https://twitter.com/CopaCrypto","type":"twitter"}],"tags":[]},{"dappId":522,"name":"Pump and Dump","description":"\"Pump and Dump\" is a cryptocurrency trading game t","fullDescription":"\"Pump and Dump\" is a cryptocurrency trading game that lets you make real money by buying and selling coins in a virtual trading market.","logo":null,"link":"https://dappradar.com/dapp/pump-and-dump","website":"http://pumpanddump.online/","chains":["ethereum"],"categories":["other"],"socialLinks":[],"tags":[]},{"dappId":523,"name":"CryptoAssetFight","description":"Blockchain Virtual Assets Match","fullDescription":"Blockchain Virtual Assets Match","logo":null,"link":"https://dappradar.com/dapp/cryptoassetfight","website":"https://www.crypto-asset.org","chains":["ethereum"],"categories":["games"],"socialLinks":[],"tags":[]}],"page":9,"pageCount":91,"resultCount":4541,"resultsPerPage":50}