{"success":true,"results":[{"dappId":127,"name":"Our-Roulette","description":"A decentralized provably fair implementation of th","fullDescription":"A decentralized provably fair implementation of the French Roulette on the Ethereum blockchain.\nAnyone can play the game, or buy shares in \"The House\"  Absolutely no developer fees, or pre-mine. We all have the same opportunities here, Invest, play, and spread the word!  ","logo":null,"link":"https://dappradar.com/dapp/our-roulette","website":"https://our-roulette.com/","chains":["ethereum"],"categories":["gambling"],"socialLinks":[],"tags":[]},{"dappId":128,"name":"Ether Estates","description":"Become a Real Estate Mogul on the Ethereum Blockch","fullDescription":"Become a Real Estate Mogul on the Ethereum Blockchain. ","logo":null,"link":"https://dappradar.com/dapp/ether-estates","website":"https://etherestates.io","chains":["ethereum"],"categories":["games"],"socialLinks":[{"title":"Official Medium","url":"https://medium.com/@etherestates","type":"medium"}],"tags":[]},{"dappId":129,"name":"Scarcebits","description":"A marketplace for digitally scarce collectibles.","fullDescription":"A marketplace for digitally scarce collectibles.","logo":null,"link":"https://dappradar.com/dapp/scarcebits","website":"https://scarcebits.com/","chains":["ethereum"],"categories":["marketplaces"],"socialLinks":[{"title":"Official Medium","url":"https://medium.com/@ScarceBits/scarcebits-a-marketplace-for-digitally-scarce-collectibles-cb2329ae5d0b","type":"medium"}],"tags":[]},{"dappId":130,"name":"CryptoCelebrity","description":"A platform where you can buy digital celebrities.","fullDescription":"A platform where you can buy digital celebrities.","logo":null,"link":"https://dappradar.com/dapp/cryptocelebrity","website":"http://cryptocelebrity.net/","chains":["ethereum"],"categories":["games"],"socialLinks":[],"tags":[]},{"dappId":131,"name":"CryptoMemes","description":"CryptoMemes allows people to trade Memes on the bl","fullDescription":"CryptoMemes allows people to trade Memes on the blockchain. Users can buy a meme like pepe, nyancat etc., and get profited when someone else buys them from the users.","logo":null,"link":"https://dappradar.com/dapp/cryptomemes","website":"http://cryptomemes.lol","chains":["ethereum"],"categories":["games"],"socialLinks":[],"tags":[]},{"dappId":133,"name":"Crypto Burrito","description":" ","fullDescription":" ","logo":null,"link":"https://dappradar.com/dapp/crypto-burrito","website":"http://cryptoburrito.co","chains":["ethereum"],"categories":["games"],"socialLinks":[],"tags":[]},{"dappId":134,"name":"LocalCryptos","description":"LocalEthereum is how people exchange ETH and ot","fullDescription":"<p>LocalEthereum is how people exchange ETH and other cryptos peer-to-peer.</p>\r\n","logo":"https://dashboard-assets.dappradar.com/geRRcWz9IdTwSrm1/document/134/localcryptos-dapp-exchanges-eth-logo_5630f20f14bbe43e42d223ebdc5beefb.png","link":"https://dappradar.com/dapp/localcryptos","website":"https://localcryptos.com","chains":["ethereum"],"categories":["exchanges"],"socialLinks":[],"tags":[]},{"dappId":136,"name":"Bilibit","description":" ","fullDescription":" ","logo":null,"link":"https://dappradar.com/dapp/bilibit","website":"https://www.bilibit.io","chains":["ethereum"],"categories":["other"],"socialLinks":[{"title":"Github","url":"https://github.com/bilibit/bilibit","type":"github"},{"title":"Official Discord","url":"https://discord.gg/RrDBFsz","type":"discord"},{"title":"Official Facebook","url":"https://facebook.com/BilibitCommunity","type":"facebook"},{"title":"Official Instagram","url":"https://www.instagram.com/bilibittoken/","type":"instagram"},{"title":"Official Medium","url":"https://medium.com/@bilibitph","type":"medium"},{"title":"Official Reddit","url":"https://www.reddit.com/r/BilibitBLB","type":"reddit"},{"title":"Official Telegram EN","url":"https://t.me/BilibitCommunity","type":"other"},{"title":"Official Telegram News","url":"https://t.me/BilibitNewsandANN","type":"other"},{"title":"Official Twitter","url":"https://twitter.com/BilibitCoin","type":"twitter"},{"title":"Official Youtube","url":"https://m.youtube.com/channel/UCziQmRwtCL3fjaymJoTue6g","type":"youtube"}],"tags":[]},{"dappId":137,"name":"ETHMap","description":"ETHMap displays a world map with 178 countries. Yo","fullDescription":"ETHMap displays a world map with 178 countries. You can become owner of any country and sell it afterward !","logo":null,"link":"https://dappradar.com/dapp/ethmap","website":"https://willdn.github.io/ETHMap","chains":["ethereum"],"categories":["games"],"socialLinks":[],"tags":[]},{"dappId":139,"name":"CryptoT","description":"Hot Potato team ownership game with no comissions","fullDescription":"Hot Potato team ownership game with no comissions","logo":null,"link":"https://dappradar.com/dapp/cryptot","website":"https://cryptot.co/","chains":["ethereum"],"categories":["games"],"socialLinks":[],"tags":[]},{"dappId":141,"name":"Social Media Market","description":"Game where you purchase digital social media asset","fullDescription":"Game where you purchase digital social media assets, leave a message, and make profit when the asset is purchased from you.","logo":null,"link":"https://dappradar.com/dapp/social-media-market","website":"http://www.cryptosocialmedia.net/","chains":["ethereum"],"categories":["games"],"socialLinks":[],"tags":[]},{"dappId":142,"name":"9Nine","description":"A slow game for slow days ...","fullDescription":"A slow game for slow days ...","logo":null,"link":"https://dappradar.com/dapp/9nine","website":"https://ni9.bid/","chains":["ethereum"],"categories":["games"],"socialLinks":[],"tags":[]},{"dappId":143,"name":"2x Machine","description":"put 1 in, get 2 out ","fullDescription":"put 1 in, get 2 out ","logo":null,"link":"https://dappradar.com/dapp/2x-machine","website":"https://2xmachine.surge.sh/","chains":["ethereum"],"categories":["other"],"socialLinks":[],"tags":[]},{"dappId":144,"name":"CryptoKiddyToys","description":"Collectible crypto toys","fullDescription":"Collectible crypto toys","logo":null,"link":"https://dappradar.com/dapp/cryptokiddytoys","website":"https://cryptokiddytoys.store","chains":["ethereum"],"categories":["games"],"socialLinks":[],"tags":[]},{"dappId":146,"name":"Cryptoconsole","description":" ","fullDescription":" ","logo":null,"link":"https://dappradar.com/dapp/cryptoconsole","website":"https://cryptoconsole.trade/","chains":["ethereum"],"categories":["games"],"socialLinks":[],"tags":[]},{"dappId":147,"name":"CryptoHoroscope","description":" ","fullDescription":" ","logo":null,"link":"https://dappradar.com/dapp/cryptohoroscope","website":"https://cryptohoroscope.trade/","chains":["ethereum"],"categories":["games"],"socialLinks":[],"tags":[]},{"dappId":148,"name":"CryptoPhones","description":" ","fullDescription":" ","logo":null,"link":"https://dappradar.com/dapp/cryptophones","website":"https://cryptophones.trade","chains":["ethereum"],"categories":["games"],"socialLinks":[],"tags":[]},{"dappId":150,"name":"Ether Dragon Ball Z","description":"Grab your favorite Dragon Ball Z hero on the Block","fullDescription":"Grab your favorite Dragon Ball Z hero on the Blockchain. Earn 2x when your hero is purchased by other player and 10% commission from every sale of your hero in Tournament of Power if you are last owner before the tournament kicks start","logo":null,"link":"https://dappradar.com/dapp/ether-dragon-ball-z","website":"https://etherdragonball.com","chains":["ethereum"],"categories":["games"],"socialLinks":[],"tags":[]},{"dappId":151,"name":"EtherVillains","description":"Bad ass collectibles with real powers.","fullDescription":"Bad ass collectibles with real powers.","logo":null,"link":"https://dappradar.com/dapp/ethervillains","website":"https://ethervillains.co","chains":["ethereum"],"categories":["games"],"socialLinks":[],"tags":[]},{"dappId":152,"name":"CryptoWager","description":"Decentralized Betting","fullDescription":"Decentralized Betting","logo":null,"link":"https://dappradar.com/dapp/cryptowager","website":"http://cryptowager.co/","chains":["ethereum"],"categories":["gambling"],"socialLinks":[],"tags":[]},{"dappId":153,"name":"BOMBS.win","description":"Better dont make it explode.","fullDescription":"Better dont make it explode.","logo":null,"link":"https://dappradar.com/dapp/bombs-win","website":"https://bombs.win/","chains":["ethereum"],"categories":["games"],"socialLinks":[],"tags":[]},{"dappId":154,"name":"Crypto Kotaku","description":"Buy Video Games on Blockchain","fullDescription":"Buy Video Games on Blockchain","logo":null,"link":"https://dappradar.com/dapp/crypto-kotaku","website":"https://cryptokotaku.trade/","chains":["ethereum"],"categories":["games"],"socialLinks":[{"title":"Official Discord","url":"https://discord.gg/7352gvN","type":"discord"}],"tags":[]},{"dappId":155,"name":"PoWH 3D","description":"The original autonomous pyramid, improved:","fullDescription":"The original autonomous pyramid, improved:","logo":null,"link":"https://dappradar.com/dapp/powh-3d","website":"https://powh.io/","chains":["ethereum"],"categories":["high-risk"],"socialLinks":[{"title":"Medium article","url":"https://medium.com/@skirmantas.januskas/the-biggest-pyramid-scheme-on-ethereum-so-far-powh3d-db672df5135d","type":"other"}],"tags":[]},{"dappId":157,"name":"THOR","description":"Simplifying Cryptocurrencies","fullDescription":"Simplifying Cryptocurrencies","logo":null,"link":"https://dappradar.com/dapp/thor","website":"https://www.valhalla-thor.com/","chains":["ethereum"],"categories":["other"],"socialLinks":[{"title":"Bitcointalk thread","url":"https://bitcointalk.org/index.php?topic=3005830.new#new","type":"other"},{"title":"Official Twitter","url":"https://twitter.com/THR_VALHALLA","type":"twitter"}],"tags":[]},{"dappId":158,"name":"CryptoSoccer","description":"CryptoSoccer is an Ethereum game based on what 99.","fullDescription":"CryptoSoccer is an Ethereum game based on what 99.7% of the world population love the most, Team!","logo":null,"link":"https://dappradar.com/dapp/cryptosoccer","website":"https://soccer.4dapp.io/","chains":["ethereum"],"categories":["games"],"socialLinks":[],"tags":[]},{"dappId":159,"name":"CryptoWatches","description":"CryptoWatches is an Ethereum game based on what 99","fullDescription":"CryptoWatches is an Ethereum game based on what 99.7% of the world population love the most, Watches!","logo":null,"link":"https://dappradar.com/dapp/cryptowatches","website":"https://cryptowatches.trade/","chains":["ethereum"],"categories":["games"],"socialLinks":[],"tags":[]},{"dappId":160,"name":"Daily Fantasy Sports","description":"Daily Fantasy Sports and peer-to-peer Ethereum bet","fullDescription":"Daily Fantasy Sports and peer-to-peer Ethereum betting. Works on all devices: iPhone, Android, iPad, Windows, or Mac.","logo":null,"link":"https://dappradar.com/dapp/daily-fantasy-sports","website":"http://SkillDuel.net","chains":["ethereum"],"categories":["gambling"],"socialLinks":[],"tags":[]},{"dappId":161,"name":"CryptoElections","description":"CryptoElections is a game about leading the countr","fullDescription":"CryptoElections is a game about leading the countries by running an election campaign in cities. The more electorate live the city — the more votes you get. Once you get the majority — you become a president. The aim is to become a president in as many countries as possible.\n\nPresident will get 1% commission fee from every transaction in his country.\n\nIf you are the mayor of the city and someone wants to beat you will get up to 2 times more you paid.","logo":null,"link":"https://dappradar.com/dapp/cryptoelections","website":"http://www.cryptoelections.com/","chains":["ethereum"],"categories":["games"],"socialLinks":[],"tags":[]},{"dappId":162,"name":"EthPizzeria Online","description":"You can buy, than change your pizza for two with p","fullDescription":"You can buy, than change your pizza for two with price divided by 2","logo":null,"link":"https://dappradar.com/dapp/ethpizzeria-online","website":"https://ethpizzeria.online/","chains":["ethereum"],"categories":["games"],"socialLinks":[],"tags":[]},{"dappId":163,"name":"KittyEthPics","description":"Buy a kitty pics and change for TWO new. Be the re","fullDescription":"Buy a kitty pics and change for TWO new. Be the recipient of the dividend (10%)","logo":null,"link":"https://dappradar.com/dapp/kittyethpics","website":"https://kittyethpics.store/","chains":["ethereum"],"categories":["games"],"socialLinks":[],"tags":[]},{"dappId":164,"name":"HypeFork","description":"307% profit machine!","fullDescription":"307% profit machine!","logo":null,"link":"https://dappradar.com/dapp/hypefork","website":"http://hypefork.bid/","chains":["ethereum"],"categories":["games"],"socialLinks":[],"tags":[]},{"dappId":165,"name":"Avocado's MMO Clicker","description":"If you have played AdVenture Capitalist or Univers","fullDescription":"If you have played AdVenture Capitalist or Universal Paperclips you will love Avocado's MMO Clicker.","logo":null,"link":"https://dappradar.com/dapp/avocado-s-mmo-clicker","website":"https://avocadotoken.com/games/clicker","chains":["ethereum"],"categories":["games"],"socialLinks":[],"tags":[]},{"dappId":168,"name":"EtherIslands","description":"EtherIslands is a decentralized islands war game c","fullDescription":"EtherIslands is a decentralized islands war game created on the Ethereum Blockchain with smart contracts. Only here can you control islands and wage war on other players in hopes of obtaining treasure from their treasuries.","logo":null,"link":"https://dappradar.com/dapp/etherislands","website":"https://etherislands.com/","chains":["ethereum"],"categories":["games"],"socialLinks":[],"tags":[]},{"dappId":169,"name":"Emoon","description":"A Decentralized Marketplace For ERC20 Tokens, Ethe","fullDescription":"A Decentralized Marketplace For ERC20 Tokens, Ethercraft, CryptoKitties and More","logo":null,"link":"https://dappradar.com/dapp/emoon","website":"https://www.etherbay.com/","chains":["ethereum"],"categories":["marketplaces"],"socialLinks":[],"tags":[]},{"dappId":170,"name":"BillionTix","description":"The 4.5 Million Ether Giveaway","fullDescription":"The 4.5 Million Ether Giveaway","logo":null,"link":"https://dappradar.com/dapp/billiontix","website":"https://www.billiontix.com/","chains":["ethereum"],"categories":["gambling"],"socialLinks":[],"tags":[]},{"dappId":171,"name":"CryptoGods","description":"Own CryptoGods and Mine God-Power-Coin (GPC).","fullDescription":"Own CryptoGods and Mine God-Power-Coin (GPC).","logo":null,"link":"https://dappradar.com/dapp/cryptogods","website":"http://cryptogods.trade","chains":["ethereum"],"categories":["games"],"socialLinks":[],"tags":[]},{"dappId":172,"name":"Crypto Dynasty","description":"Start you Chiese History Dynasty on CryptoDynasty!","fullDescription":"Start you Chiese History Dynasty on CryptoDynasty!","logo":null,"link":"https://dappradar.com/dapp/crypto-dynasty","website":"https://cryptodynasty.online","chains":["ethereum"],"categories":["games"],"socialLinks":[],"tags":[]},{"dappId":173,"name":"Triple","description":"Triple Your ETH Investment","fullDescription":"Triple Your ETH Investment","logo":null,"link":"https://dappradar.com/dapp/triple","website":"https://triple.live","chains":["ethereum"],"categories":["games"],"socialLinks":[],"tags":[]},{"dappId":175,"name":"TheNextBlock","description":"The Next Block is a blockchain game, where player ","fullDescription":"The Next Block is a blockchain game, where player predicts which miner will mine his transaction.\n\nPlayer can place 1 bet per block. If a player predicts the correct miner, he earns 1 point. The game lasts till someone gets to 3 points, winner gets 70% of prize pool, 20% will be collected to the next prize pool.  \n\nGame Rules:\nIf player doesn’t predict the correct block miner, he will lose all points or if other player wins the prize pool all other players points reduce to 0.\nPlayers bets are collected to the prize pool plus the 20% from the previous pool.\nPlayers can skip the blocks without losing points.","logo":null,"link":"https://dappradar.com/dapp/thenextblock","website":"https://thenextblock.github.io/","chains":["ethereum"],"categories":["games"],"socialLinks":[],"tags":[]},{"dappId":176,"name":"Ether Cities","description":"Be mayor of the city on the blockchain","fullDescription":"Be mayor of the city on the blockchain","logo":null,"link":"https://dappradar.com/dapp/ether-cities","website":"https://ethercities.net/","chains":["ethereum"],"categories":["games"],"socialLinks":[],"tags":[]},{"dappId":177,"name":"MyEtherCity","description":"Build your own city on the Ethereum blockchain and","fullDescription":"Build your own city on the Ethereum blockchain and turn it into a booming metropolis. Will you be good enough to become the strongest mayor on the Blockchain?","logo":null,"link":"https://dappradar.com/dapp/myethercity","website":"https://myethercity.com/","chains":["ethereum"],"categories":["games"],"socialLinks":[{"title":"Official Discord","url":"https://discord.gg/Xvjv44a","type":"discord"}],"tags":[]},{"dappId":179,"name":"Mobsquads","description":"Collect and fight rival gangs on the blockchain fo","fullDescription":"Collect and fight rival gangs on the blockchain for loot and bonuses.","logo":null,"link":"https://dappradar.com/dapp/mobsquads","website":"https://mobsquads.io","chains":["ethereum"],"categories":["games"],"socialLinks":[{"title":"Medium article","url":"https://medium.com/@martin1209/mobsquads-collect-and-fight-rival-gangs-on-the-blockchain-for-loot-and-bonuses-1c5feaddcef7","type":"other"}],"tags":[]},{"dappId":180,"name":"FunCoin","description":"Fair autonomous pyramid.","fullDescription":"Fair autonomous pyramid.","logo":null,"link":"https://dappradar.com/dapp/funcoin","website":"http://funcoin.trade/","chains":["ethereum"],"categories":["other"],"socialLinks":[],"tags":[]},{"dappId":181,"name":"Crypto Pepe Market","description":"Buy and trade Pepe cards with crypto. Low dev fees","fullDescription":"Buy and trade Pepe cards with crypto. Low dev fees, and a pricing structure so everyone get's a slice.","logo":null,"link":"https://dappradar.com/dapp/crypto-pepe-market","website":"http://www.cryptopepe.net/","chains":["ethereum"],"categories":["games"],"socialLinks":[],"tags":[]},{"dappId":182,"name":"Turfpool","description":"Land rush the crypto world!","fullDescription":"Land rush the crypto world!","logo":null,"link":"https://dappradar.com/dapp/turfpool","website":"https://map.turfpool.com/","chains":["ethereum"],"categories":["games"],"socialLinks":[],"tags":[]},{"dappId":185,"name":"ÐAppster","description":"ÐAppster lets you register and promote your ÐApps ","fullDescription":"ÐAppster lets you register and promote your ÐApps on cheap plots of advertising card space. This space can be sold or leased out based on what the new owner wants to do with it!","logo":null,"link":"https://dappradar.com/dapp/djappster","website":"https://dappster.space","chains":["ethereum"],"categories":["other"],"socialLinks":[],"tags":[]},{"dappId":186,"name":"Ether's Ark","description":"Ether's Ark allows you to adopt the cutest pets ar","fullDescription":"Ether's Ark allows you to adopt the cutest pets around in order to save them and repopulate the Earth's species! \n\nJust go to the Marketplace to begin adopting pets. After each adoption they will automatically be put up for adoption again with an increased cost, ensuring these special creatures end up with the most caring owner and past owners are compensated for the care they gave. \n\nEvery once in a while pets may get frisky. Make sure to check the Mates page frequently to see if one of your own is looking for a mate because adopting that mate would then birth an entirely new species to the world!","logo":null,"link":"https://dappradar.com/dapp/ether-s-ark","website":"https://ethersark.com","chains":["ethereum"],"categories":["games"],"socialLinks":[{"title":"Official Discord","url":"https://discord.gg/9ybMUUb","type":"discord"},{"title":"Official Medium","url":"https://medium.com/@EthersArk","type":"medium"},{"title":"Official Twitter","url":"https://twitter.com/EthersArk","type":"twitter"}],"tags":[]},{"dappId":187,"name":"Coinrace","description":"Bet on a price of popular cryptocurrencies (BTC, E","fullDescription":"Bet on a price of popular cryptocurrencies (BTC, ETH, EOS, ZEC, etc.) and win RACE tokens. The game engine is powered by a set of smart contracts written in Solidity.","logo":null,"link":"https://dappradar.com/dapp/coinrace","website":"http://coinrace.co","chains":["ethereum"],"categories":["gambling"],"socialLinks":[{"title":"Bitcointalk thread","url":"https://bitcointalk.org/index.php?topic=3008927.40","type":"other"}],"tags":[]},{"dappId":188,"name":"Ether battleground","description":"Win ETH by putting more ETH in the pot than the ot","fullDescription":"Win ETH by putting more ETH in the pot than the other team","logo":null,"link":"https://dappradar.com/dapp/ether-battleground","website":"https://www.etherbattleground.com/","chains":["ethereum"],"categories":["other"],"socialLinks":[{"title":"Official Twitter","url":"https://twitter.com/ethbattleground","type":"twitter"}],"tags":[]},{"dappId":190,"name":"EtherWorld","description":"What is ETHWORLD?\nETHWORLD is a game built on Ethe","fullDescription":"What is ETHWORLD?\nETHWORLD is a game built on Ethereum that lets you own a completely unique blockchain representation of countries around the world. \nAfter purchasing a country, you'll start earning rent and the market price will automatically increase. ","logo":null,"link":"https://dappradar.com/dapp/etherworld","website":"https://ethworld.fun/","chains":["ethereum"],"categories":["games"],"socialLinks":[],"tags":[]}],"page":3,"pageCount":91,"resultCount":4541,"resultsPerPage":50}